contour_details : [1615 1335],[1615 1679],[1633 1679],[1634 1680],[1697 1680],[1698 1681],[1761 1681],[1762 1682],[1825 1682],[1826 1683],[1889 1683],[1890 1684],[2139 1684],[2139 1335] : sejour : [1839,1414]
contour_details : [1965 900],[1965 964],[1964 965],[1963 965],[1962 964],[1955 964],[1954 963],[1947 963],[1946 962],[1939 962],[1938 961],[1931 961],[1930 960],[1925 960],[1924 959],[1924 905],[1725 905],[1725 909],[1724 910],[1724 927],[1723 928],[1723 945],[1722 946],[1722 963],[1721 964],[1721 981],[1720 982],[1720 994],[1719 995],[1690 995],[1690 1324],[2139 1324],[2139 900] : repas : [1878,1137]
contour_details : [2155 830],[2155 1314],[2454 1314],[2454 830] : cuisine : [2244,1056]
contour_details : [1725 650],[1725 894],[1889 894],[1889 650] : hall : [1810,772]
