contour_details : [2060 1095],[2060 1154],[2059 1155],[2005 1155],[2005 1444],[2104 1444],[2104 1195],[2105 1194],[2244 1194],[2244 1095]
contour_details : [1705 970],[1705 1139],[1804 1139],[1804 970]
contour_details : [1355 970],[1355 1634],[1454 1634],[1454 970]
contour_details : [610 970],[610 1389],[709 1389],[709 970]
