contour_details : [1685 1590],[1685 1924],[2144 1924],[2144 1900],[2145 1899],[2150 1899],[2151 1898],[2158 1898],[2159 1897],[2166 1897],[2167 1896],[2174 1896],[2175 1895],[2182 1895],[2183 1894],[2184 1894],[2184 1620],[1970 1620],[1969 1619],[1969 1590] : sejour : [1865,1777]
contour_details : [1985 1250],[1985 1614],[2047 1614],[2048 1613],[2137 1613],[2138 1612],[2227 1612],[2228 1611],[2317 1611],[2318 1610],[2407 1610],[2408 1609],[2434 1609],[2434 1575],[2435 1574],[2464 1574],[2464 1295],[2350 1295],[2349 1294],[2349 1250] : cuisine : [2312,1412]
contour_details : [1985 1180],[1985 1239],[2349 1239],[2349 1232],[2348 1231],[2348 1220],[2347 1219],[2347 1208],[2346 1207],[2346 1196],[2345 1195],[2345 1184],[2344 1183],[2344 1180] : placard : [2117,1216]
contour_details : [1535 1175],[1535 1189],[1534 1190],[1534 1237],[1533 1238],[1533 1285],[1532 1286],[1532 1333],[1531 1334],[1531 1381],[1530 1382],[1530 1414],[1609 1414],[1610 1415],[1610 1579],[1974 1579],[1974 1175] : repas : [1888,1358]
contour_details : [1155 1145],[1155 1579],[1594 1579],[1594 1425],[1525 1425],[1524 1424],[1524 1387],[1523 1386],[1523 1331],[1522 1330],[1522 1275],[1521 1274],[1521 1219],[1520 1218],[1520 1163],[1519 1162],[1519 1145] : chambre : [1346,1328]
contour_details : [1985 820],[1985 1024],[1984 1025],[1525 1025],[1525 1164],[2349 1164],[2349 1015],[2095 1015],[2094 1014],[2094 820] : hall : [2135,1082]
