contour_details : [1109 1342],[1109 1485],[1802 1485],[1802 1442],[1801 1441],[1801 1396],[1800 1395],[1800 1394],[1182 1394],[1181 1393],[1181 1342] : degt : [1468,1434]
contour_details : [1653 1320],[1653 1377],[1706 1377],[1707 1376],[1782 1376],[1783 1375],[1804 1375],[1804 1320] : wc : [1703,1351]
contour_details : [999 1030],[999 1229],[1025 1229],[1027 1231],[1027 1232],[1032 1237],[1032 1238],[1036 1242],[1036 1243],[1041 1248],[1041 1249],[1046 1254],[1046 1255],[1050 1259],[1050 1260],[1055 1265],[1055 1266],[1059 1270],[1059 1271],[1064 1276],[1064 1277],[1068 1281],[1068 1282],[1073 1287],[1073 1288],[1077 1292],[1077 1293],[1082 1298],[1082 1299],[1086 1303],[1086 1304],[1091 1309],[1091 1310],[1096 1315],[1096 1316],[1100 1320],[1100 1321],[1105 1326],[1105 1327],[1107 1329],[1181 1329],[1181 1030] : cellier : [1081,1180]
