contour_details : [1742 1730],[1741 1731],[1661 1731],[1660 1732],[1581 1732],[1580 1733],[1500 1733],[1499 1734],[1475 1734],[1475 1885],[1776 1885],[1776 1840],[1777 1839],[1796 1839],[1796 1730] : hall : [1564,1798]
contour_details : [684 1522],[684 1933],[1471 1933],[1470 1932],[1470 1917],[1469 1916],[1469 1901],[1468 1900],[1468 1885],[1467 1884],[1467 1869],[1466 1868],[1466 1854],[1465 1853],[1465 1838],[1464 1837],[1464 1822],[1463 1821],[1463 1806],[1462 1805],[1462 1790],[1461 1789],[1461 1774],[1460 1773],[1460 1758],[1459 1757],[1459 1743],[1458 1742],[1458 1727],[1457 1726],[1457 1708],[1458 1707],[1458 1704],[1459 1703],[1459 1700],[1460 1699],[1460 1696],[1461 1695],[1461 1693],[1462 1692],[1462 1689],[1463 1688],[1463 1685],[1464 1684],[1464 1681],[1465 1680],[1465 1677],[1466 1676],[1466 1673],[1467 1672],[1467 1669],[1468 1668],[1468 1665],[1469 1664],[1469 1661],[1470 1660],[1470 1657],[1471 1656],[1471 1653],[1472 1652],[1472 1649],[1473 1648],[1473 1645],[1474 1644],[1474 1641],[1475 1640],[1475 1637],[1476 1636],[1476 1633],[1477 1632],[1477 1629],[1478 1628],[1478 1625],[1479 1624],[1479 1621],[1480 1620],[1480 1617],[1481 1616],[1481 1613],[1482 1612],[1482 1609],[1483 1608],[1483 1605],[1484 1604],[1484 1601],[1485 1600],[1485 1598],[1486 1597],[1486 1594],[1487 1593],[1487 1590],[1488 1589],[1488 1586],[1489 1585],[1489 1582],[1490 1581],[1490 1578],[1491 1577],[1491 1574],[1492 1573],[1492 1570],[1493 1569],[1493 1566],[1494 1565],[1494 1562],[1495 1561],[1495 1558],[1496 1557],[1496 1554],[1497 1553],[1497 1550],[1498 1549],[1498 1546],[1499 1545],[1499 1542],[1500 1541],[1500 1538],[1501 1537],[1501 1534],[1502 1533],[1502 1530],[1503 1529],[1503 1526],[1504 1525],[1504 1522] : sejour : [997,1706]
contour_details : [1579 1310],[1579 1312],[1578 1313],[1578 1316],[1577 1317],[1577 1319],[1576 1320],[1576 1323],[1575 1324],[1575 1327],[1574 1328],[1574 1331],[1573 1332],[1573 1335],[1572 1336],[1572 1338],[1571 1339],[1571 1342],[1570 1343],[1570 1346],[1569 1347],[1569 1350],[1568 1351],[1568 1354],[1567 1355],[1567 1357],[1566 1358],[1566 1361],[1565 1362],[1565 1365],[1564 1366],[1564 1369],[1563 1370],[1563 1373],[1562 1374],[1562 1377],[1561 1378],[1561 1380],[1560 1381],[1560 1384],[1559 1385],[1559 1388],[1558 1389],[1558 1392],[1557 1393],[1557 1396],[1556 1397],[1556 1399],[1555 1400],[1555 1403],[1554 1404],[1554 1407],[1553 1408],[1553 1411],[1552 1412],[1552 1415],[1551 1416],[1551 1418],[1550 1419],[1550 1422],[1549 1423],[1549 1426],[1548 1427],[1548 1430],[1547 1431],[1547 1434],[1546 1435],[1546 1438],[1545 1439],[1545 1441],[1544 1442],[1544 1445],[1543 1446],[1543 1449],[1542 1450],[1542 1453],[1541 1454],[1541 1457],[1540 1458],[1540 1460],[1539 1461],[1539 1464],[1538 1465],[1538 1468],[1537 1469],[1537 1472],[1536 1473],[1536 1476],[1535 1477],[1535 1479],[1534 1480],[1534 1483],[1533 1484],[1533 1487],[1532 1488],[1532 1491],[1531 1492],[1531 1495],[1530 1496],[1530 1499],[1529 1500],[1529 1502],[1528 1503],[1528 1506],[1527 1507],[1527 1510],[1526 1511],[1526 1514],[1525 1515],[1525 1518],[1524 1519],[1524 1521],[1523 1522],[1523 1525],[1522 1526],[1522 1529],[1521 1530],[1521 1533],[1520 1534],[1520 1537],[1519 1538],[1519 1540],[1518 1541],[1518 1544],[1517 1545],[1517 1548],[1516 1549],[1516 1552],[1515 1553],[1515 1556],[1514 1557],[1514 1560],[1513 1561],[1513 1563],[1512 1564],[1512 1567],[1511 1568],[1511 1571],[1510 1572],[1510 1575],[1509 1576],[1509 1579],[1508 1580],[1508 1582],[1507 1583],[1507 1586],[1506 1587],[1506 1590],[1505 1591],[1505 1594],[1504 1595],[1504 1598],[1503 1599],[1503 1601],[1502 1602],[1502 1605],[1501 1606],[1501 1609],[1500 1610],[1500 1613],[1499 1614],[1499 1617],[1498 1618],[1498 1620],[1497 1621],[1497 1624],[1496 1625],[1496 1628],[1495 1629],[1495 1632],[1494 1633],[1494 1636],[1493 1637],[1493 1640],[1492 1641],[1492 1643],[1491 1644],[1491 1647],[1490 1648],[1490 1651],[1489 1652],[1489 1655],[1488 1656],[1488 1659],[1487 1660],[1487 1662],[1486 1663],[1486 1666],[1485 1667],[1485 1670],[1484 1671],[1484 1674],[1483 1675],[1483 1678],[1482 1679],[1482 1681],[1481 1682],[1481 1685],[1480 1686],[1480 1689],[1479 1690],[1479 1693],[1478 1694],[1478 1697],[1477 1698],[1477 1701],[1476 1702],[1476 1704],[1475 1705],[1475 1708],[1474 1709],[1474 1712],[1473 1713],[1494 1713],[1495 1714],[1567 1714],[1568 1715],[1641 1715],[1642 1716],[1714 1716],[1715 1717],[1787 1717],[1788 1718],[1861 1718],[1862 1719],[1912 1719],[1912 1310] : cuisine : [1690,1511]
contour_details : [686 1120],[686 1507],[975 1507],[976 1506],[1387 1506],[1388 1505],[1509 1505],[1509 1503],[1510 1502],[1510 1500],[1511 1499],[1511 1497],[1512 1496],[1512 1493],[1513 1492],[1513 1490],[1514 1489],[1514 1487],[1515 1486],[1515 1484],[1516 1483],[1516 1481],[1517 1480],[1517 1477],[1518 1476],[1518 1474],[1519 1473],[1519 1471],[1520 1470],[1520 1468],[1521 1467],[1521 1465],[1522 1464],[1522 1461],[1523 1460],[1523 1458],[1524 1457],[1524 1455],[1525 1454],[1525 1452],[1526 1451],[1526 1449],[1527 1448],[1527 1445],[1528 1444],[1528 1442],[1529 1441],[1529 1439],[1530 1438],[1530 1436],[1531 1435],[1531 1433],[1532 1432],[1532 1429],[1533 1428],[1533 1426],[1534 1425],[1534 1423],[1535 1422],[1535 1420],[1536 1419],[1536 1417],[1537 1416],[1537 1413],[1538 1412],[1538 1410],[1539 1409],[1539 1407],[1540 1406],[1540 1404],[1541 1403],[1541 1401],[1542 1400],[1542 1397],[1543 1396],[1543 1394],[1544 1393],[1544 1391],[1545 1390],[1545 1388],[1546 1387],[1546 1385],[1547 1384],[1547 1381],[1548 1380],[1548 1378],[1549 1377],[1549 1375],[1550 1374],[1550 1372],[1551 1371],[1551 1369],[1552 1368],[1552 1365],[1553 1364],[1553 1362],[1554 1361],[1554 1359],[1555 1358],[1555 1356],[1556 1355],[1556 1353],[1557 1352],[1557 1349],[1558 1348],[1558 1346],[1559 1345],[1559 1343],[1560 1342],[1560 1340],[1561 1339],[1561 1337],[1562 1336],[1562 1333],[1563 1332],[1563 1330],[1564 1329],[1564 1327],[1565 1326],[1565 1324],[1566 1323],[1566 1321],[1567 1320],[1567 1317],[1568 1316],[1568 1314],[1569 1313],[1569 1311],[1570 1310],[1570 1308],[1571 1307],[1571 1305],[1572 1304],[1572 1301],[1573 1300],[1573 1298],[1574 1297],[1574 1295],[1575 1294],[1575 1292],[1576 1291],[1576 1289],[1577 1288],[1577 1285],[1578 1284],[1578 1282],[1579 1281],[1579 1120] : repas : [1219,1322]
