contour_details : [1410 1725],[1410 2139],[1839 2139],[1839 1725] : sejour : [1627,2014]
contour_details : [969 1540],[967 1542],[967 1543],[953 1557],[953 1558],[939 1572],[939 1573],[925 1587],[925 1588],[911 1602],[911 1603],[900 1614],[900 1615],[911 1626],[911 1627],[926 1642],[926 1643],[941 1658],[941 1659],[956 1674],[956 1675],[971 1690],[971 1691],[975 1695],[975 2144],[1389 2144],[1389 2116],[1390 2115],[1390 2026],[1391 2025],[1391 1936],[1392 1935],[1392 1846],[1393 1845],[1393 1756],[1394 1755],[1394 1695],[1395 1694],[1499 1694],[1499 1595],[1395 1595],[1394 1594],[1394 1550],[1200 1550],[1199 1549],[1199 1540] : repas : [1141,1944]
contour_details : [1020 1480],[1020 1529],[1204 1529],[1204 1480] : placard : [1123,1509]
contour_details : [1215 1245],[1215 1534],[1394 1534],[1394 1345],[1335 1345],[1334 1344],[1334 1245] : hall : [1316,1427]
