contour_details : [1265 1410],[1265 2099],[2074 2099],[2074 1575],[1785 1575],[1785 1624],[1784 1625],[1720 1625],[1719 1624],[1719 1575],[1530 1575],[1529 1574],[1529 1410] : sejour : [1664,1886]
contour_details : [1270 1235],[1270 1399],[1349 1399],[1349 1235] : pl : [1302,1302]
contour_details : [1185 1235],[1184 1236],[1077 1236],[1076 1237],[969 1237],[968 1238],[861 1238],[860 1239],[753 1239],[752 1240],[720 1240],[720 1263],[719 1264],[719 1338],[718 1339],[718 1413],[717 1414],[717 1488],[716 1489],[716 1563],[715 1564],[715 1614],[1259 1614],[1259 1235] : cuisine : [988,1402]
contour_details : [1272 925],[1272 1119],[1356 1119],[1356 925] : wc : [1319,1018]
contour_details : [1380 920],[1380 1024],[1379 1025],[1370 1025],[1370 1129],[1369 1130],[1265 1130],[1265 1224],[1374 1224],[1375 1225],[1375 1234],[1374 1235],[1360 1235],[1360 1399],[1529 1399],[1529 1230],[1530 1229],[1634 1229],[1634 1130],[1485 1130],[1484 1129],[1484 920] : hall : [1424,1171]
contour_details : [1540 805],[1540 811],[1539 812],[1539 834],[1538 835],[1538 857],[1537 858],[1537 880],[1536 881],[1536 903],[1535 904],[1535 919],[1534 920],[1490 920],[1490 946],[1491 947],[1491 986],[1492 987],[1492 1026],[1493 1027],[1493 1066],[1494 1067],[1494 1106],[1495 1107],[1495 1119],[1744 1119],[1744 1077],[1743 1076],[1743 1014],[1742 1013],[1742 951],[1741 950],[1741 888],[1740 887],[1740 825],[1739 824],[1739 805] : bains : [1583,959]
