contour_details : [1635 1875],[1635 2284],[2014 2284],[2014 2230],[2013 2229],[2013 2149],[2012 2148],[2012 2068],[2011 2067],[2011 1987],[2010 1986],[2010 1906],[2009 1905],[2009 1880],[1987 1880],[1986 1879],[1912 1879],[1911 1878],[1837 1878],[1836 1877],[1762 1877],[1761 1876],[1687 1876],[1686 1875] : repas : [1830,2058]
contour_details : [1090 1875],[1090 2049],[965 2174],[965 2175],[966 2176],[966 2177],[968 2179],[968 2180],[969 2181],[969 2182],[971 2184],[971 2185],[972 2186],[972 2187],[974 2189],[974 2190],[975 2191],[975 2192],[977 2194],[977 2195],[978 2196],[978 2197],[980 2199],[1034 2199],[1140 2305],[1140 2306],[1160 2326],[1160 2327],[1180 2347],[1180 2348],[1200 2368],[1200 2369],[1220 2389],[1220 2390],[1225 2395],[1225 2440],[1249 2464],[1309 2464],[1311 2466],[1311 2467],[1313 2469],[1313 2470],[1315 2472],[1315 2473],[1317 2475],[1317 2476],[1319 2478],[1319 2479],[1320 2479],[1321 2478],[1322 2478],[1324 2476],[1325 2476],[1327 2474],[1328 2474],[1330 2472],[1331 2472],[1333 2470],[1334 2470],[1335 2469],[1395 2469],[1402 2462],[1402 2461],[1438 2425],[1438 2424],[1474 2388],[1474 2387],[1510 2351],[1510 2350],[1546 2314],[1546 2313],[1575 2284],[1609 2284],[1609 1875] : sejour : [1404,2173]
contour_details : [1640 1500],[1640 1864],[2014 1864],[2014 1520],[1700 1520],[1699 1519],[1699 1500] : cuisine : [1826,1658]
contour_details : [1185 1500],[1185 1704],[1184 1705],[1090 1705],[1090 1725],[1091 1726],[1091 1755],[1092 1756],[1092 1785],[1093 1786],[1093 1815],[1094 1816],[1094 1845],[1095 1846],[1095 1854],[1609 1854],[1609 1710],[1510 1710],[1509 1709],[1509 1594],[1508 1594],[1507 1593],[1506 1593],[1504 1591],[1503 1591],[1502 1590],[1501 1590],[1499 1588],[1498 1588],[1496 1586],[1495 1586],[1494 1585],[1493 1585],[1491 1583],[1490 1583],[1488 1581],[1487 1581],[1486 1580],[1485 1580],[1483 1578],[1482 1578],[1481 1577],[1480 1577],[1478 1575],[1477 1575],[1475 1573],[1474 1573],[1473 1572],[1472 1572],[1470 1570],[1469 1570],[1467 1568],[1466 1568],[1465 1567],[1464 1567],[1462 1565],[1461 1565],[1460 1564],[1459 1564],[1457 1562],[1456 1562],[1454 1560],[1453 1560],[1452 1559],[1451 1559],[1449 1557],[1448 1557],[1446 1555],[1445 1555],[1444 1554],[1443 1554],[1441 1552],[1440 1552],[1439 1551],[1438 1551],[1436 1549],[1435 1549],[1433 1547],[1432 1547],[1431 1546],[1430 1546],[1428 1544],[1427 1544],[1425 1542],[1424 1542],[1423 1541],[1422 1541],[1420 1539],[1419 1539],[1418 1538],[1417 1538],[1415 1536],[1414 1536],[1412 1534],[1411 1534],[1410 1533],[1409 1533],[1407 1531],[1406 1531],[1405 1530],[1405 1709],[1404 1710],[1285 1710],[1284 1709],[1284 1500] : hall : [1175,1839]
contour_details : [1295 1495],[1295 1699],[1394 1699],[1394 1495] : wc : [1343,1591]
