contour_details : [1128 1465],[1128 1626],[1199 1626],[1199 1466],[1166 1466],[1165 1465] : pl : [1157,1549]
contour_details : [959 1463],[958 1464],[732 1464],[731 1465],[685 1465],[685 1516],[684 1517],[669 1517],[669 1791],[1118 1791],[1118 1463] : chambre : [946,1581]
contour_details : [1009 1283],[1009 1345],[1010 1346],[1231 1346],[1232 1345],[1232 1283] : placard : [1124,1324]
contour_details : [1456 1168],[1426 1198],[1426 1199],[1391 1234],[1391 1235],[1356 1270],[1356 1271],[1351 1276],[1351 1453],[1352 1454],[1633 1454],[1634 1453],[1634 1388],[1624 1388],[1623 1387],[1623 1309],[1624 1308],[1634 1308],[1634 1168] : bains : [1508,1295]
contour_details : [1244 1061],[1243 1062],[1243 1165],[1242 1166],[1218 1166],[1218 1271],[1242 1271],[1243 1272],[1243 1280],[1244 1281],[1244 1308],[1245 1309],[1245 1336],[1246 1337],[1246 1354],[1245 1355],[1006 1355],[1006 1453],[1007 1454],[1336 1454],[1337 1453],[1337 1268],[1450 1155],[1637 1155],[1637 1062],[1636 1061] : degagement : [1416,1106]
contour_details : [1152 928],[1152 1157],[1232 1157],[1232 928] : wc : [1190,1023]
