contour_details : [1019 1409],[1019 1509],[1077 1509],[1078 1510],[1078 1636],[1177 1636],[1178 1635],[1178 1458],[1135 1458],[1134 1457],[1134 1409]
contour_details : [1001 1301],[1001 1401],[1238 1401],[1239 1400],[1239 1302],[1238 1301]
contour_details : [1297 1266],[1297 1378],[1396 1378],[1397 1377],[1397 1266]
contour_details : [1183 1051],[1183 1163],[1283 1163],[1283 1052],[1282 1051]
