contour_details : [1350 1400],[1350 1459],[1349 1460],[1295 1460],[1295 1994],[1394 1994],[1394 1500],[1395 1499],[1724 1499],[1724 1400]
contour_details : [1105 1395],[1105 1494],[1269 1494],[1269 1395]
contour_details : [785 1260],[785 1359],[874 1359],[874 1260]
