contour_details : [1230 1630],[1230 1889],[1319 1889],[1320 1890],[1320 1944],[1659 1944],[1659 1845],[1330 1845],[1329 1844],[1329 1630]
contour_details : [1515 1505],[1515 1604],[1584 1604],[1584 1505]
contour_details : [1230 1390],[1230 1544],[1284 1544],[1285 1545],[1285 1599],[1499 1599],[1499 1500],[1330 1500],[1329 1499],[1329 1390]
