contour_details : [885 2145],[885 2529],[1534 2529],[1534 2145] : salon : [1070,2354]
contour_details : [1545 2130],[1545 2529],[1834 2529],[1834 2130] : repas : [1656,2339]
contour_details : [975 1865],[975 1924],[974 1925],[885 1925],[885 2134],[1529 2134],[1404 2009],[1404 1989],[1403 1988],[1403 1960],[1402 1959],[1402 1931],[1401 1930],[1401 1902],[1400 1901],[1400 1874],[1399 1873],[1399 1865] : hall : [1057,2028]
contour_details : [1414 1767],[1414 1997],[1533 2116],[1838 2116],[1838 2065],[1837 2064],[1837 1995],[1836 1994],[1836 1925],[1835 1924],[1835 1859],[1834 1858],[1834 1789],[1833 1788],[1833 1767] : cuisine : [1612,1914]
contour_details : [1300 1300],[1300 1374],[1301 1375],[1301 1490],[1302 1491],[1302 1600],[1303 1601],[1303 1710],[1304 1711],[1304 1819],[1305 1820],[1305 1849],[1399 1849],[1399 1775],[1398 1774],[1398 1665],[1397 1664],[1397 1555],[1396 1554],[1396 1445],[1395 1444],[1395 1335],[1394 1334],[1394 1300] : dgt : [1360,1395]
