contour_details : [945 1140],[945 1304],[1044 1304],[1044 1300],[1045 1299],[1054 1299],[1054 1140]
contour_details : [1585 1080],[1585 1179],[1779 1179],[1779 1080]
contour_details : [1410 941],[1410 1130],[1509 1130],[1509 941]
contour_details : [570 885],[570 984],[1354 984],[1354 885]
