25
4
1.41421356237
2
unknown
74
112
29
73
34.5398320783
0.0
0.0
0.0314465408805
0.0251572327044
0.0251572327044
0.0440251572327
0.0314465408805
0.0377358490566
0.0754716981132
0.11320754717
0.0754716981132
0.0880503144654
0.0503144654088
0.0377358490566
0.0440251572327
0.0314465408805
0.0440251572327
0.0566037735849
0.0503144654088
0.0251572327044
0.0125786163522
0.0251572327044
0.0125786163522
0.0251572327044
0.0314465408805
0.0687087418495
0.0377358490566
0.0377358490566
0.0314465408805
0.0440251572327
0.0377358490566
0.0566037735849
0.0503144654088
0.0754716981132
0.0817610062893
0.106918238994
0.0691823899371
0.0125786163522
0.0
0.0125786163522
0.0062893081761
0.0188679245283
0.0062893081761
0.0251572327044
0.0188679245283
0.0314465408805
0.0377358490566
0.0440251572327
0.0440251572327
0.0943396226415
0.0062893081761
3
unknown
50
104
39
94
37.6430604494
0.0
0.0
0.0
0.0
0.0
0.0
0.0
0.0
0.0131578947368
0.0197368421053
0.0361842105263
0.0394736842105
0.0328947368421
0.0328947368421
0.0328947368421
0.0625
0.125
0.105263157895
0.105263157895
0.118421052632
0.0756578947368
0.0625
0.0592105263158
0.0559210526316
0.0197368421053
0.10706975039
0.0230263157895
0.0493421052632
0.0559210526316
0.0394736842105
0.0328947368421
0.0328947368421
0.0855263157895
0.0921052631579
0.0394736842105
0.0230263157895
0.0263157894737
0.0230263157895
0.0131578947368
0.0131578947368
0.00986842105263
0.00657894736842
0.00657894736842
0.00657894736842
0.0131578947368
0.00657894736842
0.00657894736842
0.00986842105263
0.00986842105263
0.00986842105263
0.00986842105263
4
rectangle
40
48
64
73
5.65685424949
0.0
0.0
0.0
0.0
0.0
0.0
0.0
0.0
0.0
0.0
0.0
0.0
0.0
0.1
0.0
0.0666666666667
0.0
0.1
0.266666666667
0.2
0.0
0.0
0.2
0.0
0.0
0.343732463077
0.0333333333333
0.0666666666667
0.0
0.0666666666667
0.0
0.0666666666667
0.0666666666667
0.0666666666667
0.0666666666667
0.0
0.0666666666667
0.0
0.0333333333333
0.0
0.0333333333333
0.0
0.0333333333333
0.0333333333333
0.0333333333333
0.0
0.0333333333333
0.0
0.0333333333333
0.0
0.0
5
unknown
40
112
74
101
42.0475920833
0.0
0.0128205128205
0.025641025641
0.017094017094
0.0299145299145
0.0512820512821
0.034188034188
0.034188034188
0.025641025641
0.034188034188
0.034188034188
0.025641025641
0.034188034188
0.034188034188
0.025641025641
0.0598290598291
0.0470085470085
0.042735042735
0.025641025641
0.123931623932
0.0769230769231
0.0512820512821
0.0897435897436
0.0384615384615
0.0213675213675
0.0497927183963
0.106837606838
0.132478632479
0.111111111111
0.0854700854701
0.017094017094
0.017094017094
0.0128205128205
0.00854700854701
0.00854700854701
0.00854700854701
0.0042735042735
0.0042735042735
0.00854700854701
0.0
0.0
0.0
0.0
0.0
0.0
0.0
0.042735042735
0.0384615384615
0.0384615384615
0.0299145299145
0.0299145299145
5
2
3
1
1
0.194032921811
floor
2
5
1
1
0.775493421053
touch
3
4
1
1
0.0230452674897
floor
3
5
1
1
0.250205761317
floor
4
5
1
1
0.0921052631579
touch
