contour_details : [1290 1940],[1290 2049],[1389 2049],[1389 1940]
contour_details : [1160 1930],[1160 2049],[1259 2049],[1259 1930]
contour_details : [600 1780],[600 1879],[1039 1879],[1039 1780]
contour_details : [1100 1395],[1100 1494],[1209 1494],[1209 1395]
