25
2
3.30231176245
2
unknown
13
170
13
170
122.494897853
0.0
0.0
0.0
0.0
0.0
0.0
0.0
0.0
0.0
0.0
0.0
0.0342857142857
0.125714285714
0.16
0.101714285714
0.0948571428571
0.100571428571
0.107428571429
0.0891428571429
0.0651428571429
0.0365714285714
0.0228571428571
0.0205714285714
0.0251428571429
0.0148571428571
0.0144417988041
0.0377142857143
0.0365714285714
0.0388571428571
0.0422857142857
0.0445714285714
0.0468571428571
0.048
0.04
0.0377142857143
0.0377142857143
0.0354285714286
0.0377142857143
0.0274285714286
0.0182857142857
0.0182857142857
0.0217142857143
0.0228571428571
0.0262857142857
0.0342857142857
0.04
0.0308571428571
0.0285714285714
0.0251428571429
0.0205714285714
0.0
3
unknown
22
161
23
161
99.4886928249
0.0
0.0
0.0
0.000223393798588
0.000178715038871
0.000156375659012
0.000156375659012
0.000156375659012
0.000201054418729
0.000223393798588
0.000245733178447
0.000312751318023
0.000178715038871
0.000178715038871
0.000893575194353
0.00212224108659
0.00165311410955
0.00127334465195
0.00107229023322
0.000893575194353
0.000893575194353
0.000826557054776
0.000603163256188
0.00156375659012
0.0007595389152
0.0
0.0
0.0
0.000223393798588
0.000178715038871
0.000156375659012
0.000156375659012
0.000156375659012
0.000201054418729
0.000223393798588
0.000245733178447
0.000312751318023
0.000178715038871
0.000178715038871
0.000893575194353
0.00212224108659
0.00165311410955
0.00127334465195
0.00107229023322
0.000893575194353
0.000893575194353
0.000826557054776
0.000603163256188
0.00156375659012
0.0007595389152
0.127905292378
0.000424448217317
0.000491466356894
0.000446787597176
0.000469126977035
0.000469126977035
0.000580823876329
0.000491466356894
0.000424448217317
0.000446787597176
0.000402108837459
0.000424448217317
0.000424448217317
0.000268072558306
0.000223393798588
0.000223393798588
0.000223393798588
0.000245733178447
0.000290411938165
0.000335090697882
0.000357430077741
0.000469126977035
0.000536145116612
0.000513805736753
0.000513805736753
0.000424448217317
0.000424448217317
0.000491466356894
0.000446787597176
0.000469126977035
0.000469126977035
0.000580823876329
0.000491466356894
0.000424448217317
0.000446787597176
0.000402108837459
0.000424448217317
0.000424448217317
0.000268072558306
0.000223393798588
0.000223393798588
0.000223393798588
0.000245733178447
0.000290411938165
0.000335090697882
0.000357430077741
0.000469126977035
0.000536145116612
0.000513805736753
0.000513805736753
0.000424448217317
1
2
3
1
1
0.141518147299
floor
