contour_details : [987 1826],[987 2139],[1064 2139],[1065 2140],[1065 2153],[1345 2153],[1345 2122],[1346 2121],[1433 2121],[1433 1826] : repas : [1316,2019]
contour_details : [1447 1818],[1447 2121],[1812 2121],[1812 1820],[1757 1820],[1756 1819],[1574 1819],[1573 1818] : cuisine : [1655,1986]
contour_details : [1633 1474],[1633 1801],[1810 1801],[1810 1474] : lingerie : [1732,1520]
contour_details : [1629 1380],[1629 1459],[1655 1459],[1656 1460],[1746 1460],[1747 1461],[1810 1461],[1810 1380] : wc : [1704,1407]
contour_details : [867 1368],[867 1809],[1428 1809],[1428 1805],[1427 1804],[1427 1801],[1426 1800],[1426 1796],[1425 1795],[1425 1792],[1424 1791],[1424 1787],[1423 1786],[1423 1783],[1422 1782],[1422 1778],[1421 1777],[1421 1774],[1420 1773],[1420 1769],[1419 1768],[1419 1765],[1418 1764],[1418 1761],[1417 1760],[1417 1756],[1416 1755],[1416 1752],[1415 1751],[1415 1747],[1414 1746],[1414 1743],[1413 1742],[1413 1738],[1412 1737],[1412 1734],[1411 1733],[1411 1729],[1410 1728],[1410 1725],[1409 1724],[1409 1720],[1408 1719],[1408 1716],[1407 1715],[1407 1712],[1404 1712],[1403 1713],[1399 1713],[1398 1714],[1393 1714],[1392 1713],[1378 1713],[1377 1712],[1363 1712],[1362 1711],[1349 1711],[1348 1710],[1334 1710],[1333 1709],[1319 1709],[1318 1708],[1310 1708],[1309 1707],[1309 1458],[1234 1458],[1233 1457],[1233 1368] : sejour : [1156,1674]
contour_details : [1425 1340],[1425 1409],[1424 1410],[1424 1500],[1423 1501],[1423 1592],[1422 1593],[1422 1683],[1421 1684],[1421 1706],[1422 1707],[1422 1709],[1423 1710],[1423 1713],[1424 1714],[1424 1716],[1425 1717],[1425 1720],[1426 1721],[1426 1723],[1427 1724],[1427 1726],[1428 1727],[1428 1730],[1429 1731],[1429 1733],[1430 1734],[1430 1737],[1431 1738],[1431 1740],[1432 1741],[1432 1744],[1433 1745],[1433 1747],[1434 1748],[1434 1750],[1435 1751],[1435 1754],[1436 1755],[1436 1757],[1437 1758],[1437 1761],[1438 1762],[1438 1764],[1439 1765],[1439 1768],[1440 1769],[1440 1771],[1441 1772],[1441 1774],[1442 1775],[1442 1778],[1443 1779],[1443 1781],[1444 1782],[1444 1785],[1445 1786],[1445 1788],[1446 1789],[1446 1792],[1447 1793],[1447 1795],[1448 1796],[1448 1798],[1449 1799],[1449 1801],[1508 1801],[1509 1800],[1593 1800],[1594 1799],[1619 1799],[1619 1380],[1548 1380],[1547 1379],[1547 1356],[1545 1356],[1544 1355],[1537 1355],[1536 1354],[1530 1354],[1529 1353],[1522 1353],[1521 1352],[1514 1352],[1513 1351],[1507 1351],[1506 1350],[1499 1350],[1498 1349],[1492 1349],[1491 1348],[1484 1348],[1483 1347],[1476 1347],[1475 1346],[1469 1346],[1468 1345],[1461 1345],[1460 1344],[1453 1344],[1452 1343],[1446 1343],[1445 1342],[1438 1342],[1437 1341],[1431 1341],[1430 1340] : bureau : [1522,1663]
contour_details : [977 876],[977 977],[976 978],[976 1088],[975 1089],[975 1199],[974 1200],[974 1310],[973 1311],[973 1319],[1422 1319],[1423 1320],[1429 1320],[1430 1321],[1435 1321],[1436 1322],[1442 1322],[1443 1323],[1448 1323],[1449 1324],[1454 1324],[1455 1325],[1461 1325],[1462 1326],[1467 1326],[1468 1327],[1474 1327],[1475 1328],[1480 1328],[1481 1329],[1486 1329],[1487 1330],[1493 1330],[1494 1331],[1499 1331],[1500 1332],[1506 1332],[1507 1333],[1512 1333],[1513 1334],[1518 1334],[1519 1335],[1525 1335],[1526 1336],[1531 1336],[1532 1337],[1538 1337],[1539 1338],[1544 1338],[1545 1339],[1824 1339],[1824 876] : garage : [1422,1089]
