contour_details : [1060 1735],[1060 1739],[1059 1740],[945 1740],[945 1839],[1059 1839],[1060 1840],[1060 1889],[1159 1889],[1159 1735]
contour_details : [1281 1671],[1281 1674],[1280 1675],[1280 1677],[1279 1678],[1279 1681],[1278 1682],[1278 1685],[1277 1686],[1277 1688],[1276 1689],[1276 1692],[1275 1693],[1275 1695],[1274 1696],[1274 1699],[1273 1700],[1273 1702],[1272 1703],[1272 1706],[1271 1707],[1271 1709],[1270 1710],[1270 1713],[1269 1714],[1269 1716],[1268 1717],[1268 1720],[1267 1721],[1267 1723],[1266 1724],[1266 1727],[1265 1728],[1265 1730],[1264 1731],[1264 1734],[1263 1735],[1263 1737],[1262 1738],[1262 1741],[1261 1742],[1261 1744],[1260 1745],[1260 1748],[1259 1749],[1259 1751],[1258 1752],[1258 1755],[1257 1756],[1257 1758],[1256 1759],[1256 1762],[1255 1763],[1255 1765],[1254 1766],[1254 1769],[1253 1770],[1253 1772],[1252 1773],[1252 1776],[1251 1777],[1251 1779],[1250 1780],[1250 1783],[1249 1784],[1249 1786],[1248 1787],[1248 1790],[1247 1791],[1247 1793],[1246 1794],[1246 1797],[1245 1798],[1245 1800],[1244 1801],[1244 1804],[1243 1805],[1243 1807],[1242 1808],[1242 1811],[1241 1812],[1241 1814],[1240 1815],[1240 1818],[1239 1819],[1239 1821],[1238 1822],[1238 1825],[1237 1826],[1237 1828],[1236 1829],[1236 1832],[1235 1833],[1235 1835],[1234 1836],[1234 1839],[1233 1840],[1233 1842],[1232 1843],[1232 1846],[1231 1847],[1231 1849],[1230 1850],[1230 1853],[1229 1854],[1229 1856],[1228 1857],[1228 1860],[1227 1861],[1227 1864],[1226 1865],[1226 1867],[1225 1868],[1225 1871],[1224 1872],[1224 1874],[1223 1875],[1223 1878],[1222 1879],[1222 1881],[1224 1881],[1225 1882],[1227 1882],[1228 1883],[1231 1883],[1232 1884],[1234 1884],[1235 1885],[1237 1885],[1238 1886],[1241 1886],[1242 1887],[1244 1887],[1245 1888],[1248 1888],[1249 1889],[1251 1889],[1252 1890],[1255 1890],[1256 1891],[1258 1891],[1259 1892],[1262 1892],[1263 1893],[1265 1893],[1266 1894],[1269 1894],[1270 1895],[1272 1895],[1273 1896],[1276 1896],[1277 1897],[1279 1897],[1280 1898],[1283 1898],[1284 1899],[1286 1899],[1287 1900],[1290 1900],[1291 1901],[1293 1901],[1294 1902],[1297 1902],[1298 1903],[1300 1903],[1301 1904],[1304 1904],[1305 1905],[1307 1905],[1308 1906],[1311 1906],[1312 1907],[1314 1907],[1315 1908],[1318 1908],[1318 1905],[1319 1904],[1319 1902],[1320 1901],[1320 1898],[1321 1897],[1321 1895],[1322 1894],[1322 1891],[1323 1890],[1323 1887],[1324 1886],[1324 1884],[1325 1883],[1325 1880],[1326 1879],[1326 1877],[1327 1876],[1327 1873],[1328 1872],[1328 1870],[1329 1869],[1329 1866],[1330 1865],[1330 1863],[1331 1862],[1331 1859],[1332 1858],[1332 1856],[1333 1855],[1333 1852],[1334 1851],[1334 1849],[1335 1848],[1335 1845],[1336 1844],[1336 1842],[1337 1841],[1337 1838],[1338 1837],[1338 1835],[1339 1834],[1339 1831],[1340 1830],[1340 1828],[1341 1827],[1341 1824],[1342 1823],[1342 1821],[1343 1820],[1343 1817],[1344 1816],[1344 1814],[1345 1813],[1345 1810],[1346 1809],[1346 1807],[1347 1806],[1347 1803],[1348 1802],[1348 1800],[1349 1799],[1349 1796],[1350 1795],[1350 1793],[1351 1792],[1351 1789],[1352 1788],[1352 1786],[1353 1785],[1353 1782],[1354 1781],[1354 1779],[1355 1778],[1355 1775],[1356 1774],[1356 1772],[1357 1771],[1357 1768],[1358 1767],[1358 1765],[1359 1764],[1359 1761],[1360 1760],[1360 1758],[1361 1757],[1361 1754],[1362 1753],[1362 1751],[1363 1750],[1363 1747],[1364 1746],[1364 1744],[1365 1743],[1365 1740],[1366 1739],[1366 1737],[1367 1736],[1367 1733],[1368 1732],[1368 1730],[1369 1729],[1369 1726],[1370 1725],[1370 1722],[1371 1721],[1371 1719],[1372 1718],[1372 1715],[1373 1714],[1373 1712],[1374 1711],[1374 1708],[1375 1707],[1375 1705],[1376 1704],[1376 1701],[1377 1700],[1377 1698],[1375 1698],[1374 1697],[1372 1697],[1371 1696],[1368 1696],[1367 1695],[1365 1695],[1364 1694],[1362 1694],[1361 1693],[1358 1693],[1357 1692],[1355 1692],[1354 1691],[1351 1691],[1350 1690],[1348 1690],[1347 1689],[1344 1689],[1343 1688],[1341 1688],[1340 1687],[1337 1687],[1336 1686],[1334 1686],[1333 1685],[1330 1685],[1329 1684],[1327 1684],[1326 1683],[1323 1683],[1322 1682],[1320 1682],[1319 1681],[1316 1681],[1315 1680],[1313 1680],[1312 1679],[1309 1679],[1308 1678],[1306 1678],[1305 1677],[1302 1677],[1301 1676],[1299 1676],[1298 1675],[1295 1675],[1294 1674],[1292 1674],[1291 1673],[1288 1673],[1287 1672],[1285 1672],[1284 1671]
contour_details : [1505 1625],[1505 1724],[1964 1724],[1964 1625]
