25
4
2.35352462779
2
rectangle
37
83
19
66
32.5269119346
0.0
0.0
0.0
0.0
0.0
0.0
0.0
0.0
0.0
0.0
0.0
0.0
0.0
0.0
0.0
0.0
0.000404825520201
0.00315763905757
0.00291474374545
0.00178123228888
0.00145737187272
0.00210509270504
0.00356246457777
0.00299570884949
0.00145737187272
0.0
0.0
0.0
0.0
0.0
0.0
0.0
0.0
0.0
0.0
0.0
0.0
0.0
0.0
0.0
0.0
0.000404825520201
0.00315763905757
0.00291474374545
0.00178123228888
0.00145737187272
0.00210509270504
0.00356246457777
0.00299570884949
0.00145737187272
0.110853057211
0.000647720832321
0.000809651040402
0.000809651040402
0.000809651040402
0.000809651040402
0.000971581248482
0.000971581248482
0.00105254635252
0.000809651040402
0.000809651040402
0.000647720832321
0.000809651040402
0.000404825520201
0.000404825520201
0.000323860416161
0.000404825520201
0.000404825520201
0.000485790624241
0.000323860416161
0.000404825520201
0.000323860416161
0.000485790624241
0.000404825520201
0.000323860416161
0.00024289531212
0.000647720832321
0.000809651040402
0.000809651040402
0.000809651040402
0.000809651040402
0.000971581248482
0.000971581248482
0.00105254635252
0.000809651040402
0.000809651040402
0.000647720832321
0.000809651040402
0.000404825520201
0.000404825520201
0.000323860416161
0.000404825520201
0.000404825520201
0.000485790624241
0.000323860416161
0.000404825520201
0.000323860416161
0.000485790624241
0.000404825520201
0.000323860416161
0.00024289531212
3
rectangle
85
131
19
66
32.5269119346
0.0
0.0
0.0
0.0
0.0
0.0
0.0
0.0
0.0
0.0
0.0
0.0
0.0
0.0
0.0
0.0
0.000481602774032
0.00375650163745
0.00346753997303
0.00211905220574
0.00260065497977
0.00356386052784
0.00317857830861
0.00240801387016
0.00105952610287
0.0
0.0
0.0
0.0
0.0
0.0
0.0
0.0
0.0
0.0
0.0
0.0
0.0
0.0
0.0
0.0
0.000481602774032
0.00375650163745
0.00346753997303
0.00211905220574
0.00260065497977
0.00356386052784
0.00317857830861
0.00240801387016
0.00105952610287
0.124365763861
0.000770564438451
0.000770564438451
0.000963205548064
0.000963205548064
0.000963205548064
0.00105952610287
0.000963205548064
0.00115584665768
0.000963205548064
0.000866884993258
0.000866884993258
0.000770564438451
0.000481602774032
0.000385282219226
0.000385282219226
0.000481602774032
0.000481602774032
0.000481602774032
0.000674243883645
0.000577923328838
0.000385282219226
0.000481602774032
0.000385282219226
0.000385282219226
0.000288961664419
0.000770564438451
0.000770564438451
0.000963205548064
0.000963205548064
0.000963205548064
0.00105952610287
0.000963205548064
0.00115584665768
0.000963205548064
0.000866884993258
0.000866884993258
0.000770564438451
0.000481602774032
0.000385282219226
0.000385282219226
0.000481602774032
0.000481602774032
0.000481602774032
0.000674243883645
0.000577923328838
0.000385282219226
0.000481602774032
0.000385282219226
0.000385282219226
0.000288961664419
5
rectangle
85
131
68
115
32.5576411922
0.0
0.0
0.0
0.0
0.0
0.0
0.0
0.0
0.0
0.0
0.0
0.0
0.0
0.0
0.0
0.0
0.000594071169726
0.0019604348601
0.00207924909404
0.0013069565734
0.00154458504129
0.0023762846789
0.00261391314679
0.00261391314679
0.000950513871562
0.0
0.0
0.0
0.0
0.0
0.0
0.0
0.0
0.0
0.0
0.0
0.0
0.0
0.0
0.0
0.0
0.000594071169726
0.0019604348601
0.00207924909404
0.0013069565734
0.00154458504129
0.0023762846789
0.00261391314679
0.00261391314679
0.000950513871562
0.0852961652293
0.000594071169726
0.000594071169726
0.000712885403671
0.000594071169726
0.000653478286699
0.000831699637617
0.000712885403671
0.000772292520644
0.000653478286699
0.000653478286699
0.000594071169726
0.000534664052754
0.000415849818808
0.000297035584863
0.000297035584863
0.000297035584863
0.000297035584863
0.000356442701836
0.000415849818808
0.000356442701836
0.000297035584863
0.000356442701836
0.000297035584863
0.000297035584863
0.000178221350918
0.000594071169726
0.000594071169726
0.000712885403671
0.000594071169726
0.000653478286699
0.000831699637617
0.000712885403671
0.000772292520644
0.000653478286699
0.000653478286699
0.000594071169726
0.000534664052754
0.000415849818808
0.000297035584863
0.000297035584863
0.000297035584863
0.000297035584863
0.000356442701836
0.000415849818808
0.000356442701836
0.000297035584863
0.000356442701836
0.000297035584863
0.000297035584863
0.000178221350918
4
rectangle
37
83
68
115
33.2415402772
0.0
0.0
0.0
0.0
0.0
0.0
0.0
0.0
0.0
0.0
0.0
0.0
0.0
0.0
0.0
0.0
0.00176155016414
0.00232204339819
0.00280246617023
0.00176155016414
0.00184162062615
0.00200176155016
0.00352310032829
0.00256225478421
0.00128112739211
0.0
0.0
0.0
0.0
0.0
0.0
0.0
0.0
0.0
0.0
0.0
0.0
0.0
0.0
0.0
0.0
0.00176155016414
0.00232204339819
0.00280246617023
0.00176155016414
0.00184162062615
0.00200176155016
0.00352310032829
0.00256225478421
0.00128112739211
0.108266620075
0.000640563696053
0.000800704620066
0.000800704620066
0.000800704620066
0.000800704620066
0.000960845544079
0.00104091600609
0.000960845544079
0.000720634158059
0.000880775082072
0.000640563696053
0.000800704620066
0.000400352310033
0.000400352310033
0.000320281848026
0.000400352310033
0.000320281848026
0.000480422772039
0.000480422772039
0.000480422772039
0.000320281848026
0.000480422772039
0.000400352310033
0.000320281848026
0.00024021138602
0.000640563696053
0.000800704620066
0.000800704620066
0.000800704620066
0.000800704620066
0.000960845544079
0.00104091600609
0.000960845544079
0.000720634158059
0.000880775082072
0.000640563696053
0.000800704620066
0.000400352310033
0.000400352310033
0.000320281848026
0.000400352310033
0.000320281848026
0.000480422772039
0.000480422772039
0.000480422772039
0.000320281848026
0.000480422772039
0.000400352310033
0.000320281848026
0.00024021138602
6
2
3
1
1
0.999515855725
touch
2
5
1
1
0.998066231569
floor
2
4
1
1
0.998548972189
touch
3
5
1
1
0.998549673677
floor
3
4
1
1
0.999032648126
touch
4
5
1
1
0.999516557892
floor
