contour_details : [1015 2090],[1015 2654],[1449 2654],[1449 2090] : sejour : [1212,2469]
contour_details : [912 2045],[911 2046],[908 2046],[907 2047],[904 2047],[903 2048],[900 2048],[899 2049],[896 2049],[895 2050],[895 2079],[894 2080],[845 2080],[844 2081],[773 2081],[772 2082],[701 2082],[700 2083],[629 2083],[628 2084],[557 2084],[556 2085],[535 2085],[535 2121],[534 2122],[534 2236],[533 2237],[533 2351],[532 2352],[532 2466],[531 2467],[531 2581],[530 2582],[530 2659],[994 2659],[994 2623],[995 2622],[995 2508],[996 2507],[996 2393],[997 2392],[997 2278],[998 2277],[998 2163],[999 2162],[999 2085],[990 2085],[989 2084],[989 2070],[980 2070],[970 2060],[949 2060],[948 2059],[947 2059],[946 2058],[945 2058],[944 2057],[943 2057],[942 2056],[941 2056],[940 2055],[920 2055],[918 2053],[918 2052],[917 2051],[917 2050],[916 2049],[916 2048],[915 2047],[915 2046],[914 2045] : repas : [756,2284]
contour_details : [895 1610],[895 1789],[989 1789],[990 1790],[990 1844],[1014 1844],[1015 1845],[1015 2074],[1449 2074],[1449 1935],[1115 1935],[1114 1934],[1114 1610],[1000 1610],[1000 1614],[999 1615],[990 1615],[989 1614],[989 1610] : hall : [1220,2014]
contour_details : [890 1425],[890 1599],[989 1599],[989 1425] : wc : [939,1564]
