contour_details : [980 2300],[980 2589],[1609 2589],[1609 2300] : sejour : [1232,2397]
contour_details : [980 2015],[980 2284],[1609 2284],[1609 2015] : hall : [1424,2057]
contour_details : [1325 1645],[1325 1829],[1324 1830],[1060 1830],[1060 1999],[1614 1999],[1614 1951],[1613 1950],[1613 1880],[1612 1879],[1612 1810],[1611 1809],[1611 1739],[1610 1738],[1610 1668],[1609 1667],[1609 1645] : cuisine : [1370,1902]
