contour_details : [1240 1205],[1240 1729],[1629 1729],[1629 1512],[1628 1511],[1628 1508],[1627 1507],[1627 1503],[1626 1502],[1626 1499],[1625 1498],[1625 1495],[1624 1494],[1624 1490],[1623 1489],[1623 1486],[1622 1485],[1622 1481],[1621 1480],[1621 1477],[1620 1476],[1620 1473],[1619 1472],[1619 1468],[1618 1467],[1618 1464],[1617 1463],[1617 1460],[1616 1459],[1616 1455],[1615 1454],[1615 1451],[1614 1450],[1614 1447],[1613 1446],[1613 1442],[1612 1441],[1612 1438],[1611 1437],[1611 1434],[1610 1433],[1610 1429],[1609 1428],[1609 1425],[1608 1424],[1608 1420],[1607 1419],[1607 1416],[1606 1415],[1606 1412],[1605 1411],[1605 1407],[1604 1406],[1604 1403],[1603 1402],[1603 1399],[1602 1398],[1602 1394],[1601 1393],[1601 1390],[1600 1389],[1600 1386],[1599 1385],[1599 1381],[1598 1380],[1598 1377],[1597 1376],[1597 1373],[1596 1372],[1596 1368],[1595 1367],[1595 1364],[1594 1363],[1594 1359],[1593 1358],[1593 1355],[1592 1354],[1592 1351],[1591 1350],[1591 1346],[1590 1345],[1590 1342],[1589 1341],[1589 1338],[1588 1337],[1588 1333],[1587 1332],[1587 1329],[1586 1328],[1586 1325],[1585 1324],[1585 1320],[1584 1319],[1584 1316],[1583 1315],[1583 1312],[1582 1311],[1582 1307],[1581 1306],[1581 1303],[1580 1302],[1580 1298],[1579 1297],[1579 1294],[1578 1293],[1578 1290],[1577 1289],[1577 1285],[1576 1284],[1576 1281],[1575 1280],[1575 1277],[1574 1276],[1574 1272],[1573 1271],[1573 1268],[1572 1267],[1572 1264],[1571 1263],[1571 1259],[1570 1258],[1570 1255],[1569 1254],[1569 1251],[1568 1250],[1568 1246],[1567 1245],[1567 1242],[1566 1241],[1566 1237],[1565 1236],[1565 1233],[1564 1232],[1564 1229],[1563 1228],[1563 1224],[1562 1223],[1562 1220],[1561 1219],[1561 1216],[1560 1215],[1560 1211],[1559 1210],[1541 1210],[1540 1209],[1477 1209],[1476 1208],[1413 1208],[1412 1207],[1349 1207],[1348 1206],[1285 1206],[1284 1205] : sejour : [1413,1480]
contour_details : [1578 935],[1578 1207],[1579 1208],[1579 1212],[1580 1213],[1580 1217],[1581 1218],[1581 1222],[1582 1223],[1582 1227],[1583 1228],[1583 1232],[1584 1233],[1584 1237],[1585 1238],[1585 1242],[1586 1243],[1586 1247],[1587 1248],[1587 1252],[1588 1253],[1588 1257],[1589 1258],[1589 1262],[1590 1263],[1590 1266],[1591 1267],[1591 1271],[1592 1272],[1592 1276],[1593 1277],[1593 1281],[1594 1282],[1594 1286],[1595 1287],[1595 1291],[1596 1292],[1596 1296],[1597 1297],[1597 1301],[1598 1302],[1598 1306],[1599 1307],[1599 1311],[1600 1312],[1600 1316],[1601 1317],[1601 1321],[1602 1322],[1602 1325],[1603 1326],[1603 1330],[1604 1331],[1604 1335],[1605 1336],[1605 1340],[1606 1341],[1606 1345],[1607 1346],[1607 1350],[1608 1351],[1608 1355],[1609 1356],[1609 1360],[1610 1361],[1610 1365],[1611 1366],[1611 1370],[1612 1371],[1612 1375],[1613 1376],[1613 1380],[1614 1381],[1614 1384],[1615 1385],[1615 1389],[1616 1390],[1616 1394],[1617 1395],[1617 1399],[1618 1400],[1618 1404],[1619 1405],[1619 1409],[1620 1410],[1620 1414],[1621 1415],[1621 1419],[1622 1420],[1622 1424],[1623 1425],[1623 1429],[1624 1430],[1624 1434],[1625 1435],[1625 1439],[1626 1440],[1626 1443],[1627 1444],[1627 1448],[1628 1449],[1628 1453],[1629 1454],[1629 1458],[1630 1459],[1630 1463],[1631 1464],[1631 1468],[1632 1469],[1632 1473],[1633 1474],[1633 1478],[1634 1479],[1634 1483],[1635 1484],[1635 1488],[1636 1489],[1636 1493],[1637 1494],[1637 1498],[1638 1499],[1967 1499],[1967 935] : repas : [1747,1125]
contour_details : [1977 930],[1977 1264],[2191 1264],[2191 930] : cuisine : [2047,1065]
