contour_details : [950 2245],[950 2589],[1454 2589],[1454 2245] : sejour : [1217,2424]
contour_details : [1310 1800],[1309 1801],[1224 1801],[1223 1802],[1138 1802],[1137 1803],[1052 1803],[1051 1804],[966 1804],[965 1805],[950 1805],[950 2234],[1364 2234],[1364 2207],[1365 2206],[1365 2120],[1366 2119],[1366 2033],[1367 2032],[1367 1946],[1368 1945],[1368 1859],[1369 1858],[1369 1800] : repas : [1202,2129]
contour_details : [1270 1730],[1270 1789],[1364 1789],[1364 1730] : pl : [1313,1766]
contour_details : [1760 1695],[1759 1696],[1695 1696],[1694 1697],[1630 1697],[1629 1698],[1565 1698],[1564 1699],[1500 1699],[1499 1700],[1480 1700],[1480 1899],[1809 1899],[1809 1872],[1808 1871],[1808 1831],[1807 1830],[1807 1790],[1806 1789],[1806 1749],[1805 1748],[1805 1708],[1804 1707],[1804 1695] : bains : [1653,1740]
contour_details : [1270 1555],[1270 1714],[1364 1714],[1364 1555] : wc : [1317,1652]
contour_details : [1145 1485],[1145 1544],[1364 1544],[1364 1485] : placard : [1251,1515]
contour_details : [950 1290],[950 1794],[1259 1794],[1259 1555],[1135 1555],[1134 1554],[1134 1290] : cuisine : [1133,1698]
contour_details : [1145 1090],[1145 1474],[1364 1474],[1364 1470],[1365 1469],[1374 1469],[1375 1470],[1375 1609],[1474 1609],[1474 1559],[1473 1558],[1473 1485],[1472 1484],[1472 1411],[1471 1410],[1471 1338],[1470 1337],[1470 1264],[1469 1263],[1469 1240],[1470 1239],[1559 1239],[1559 1090] : chambre : [1320,1208]
