contour_details : [1400 1760],[1398 1762],[1397 1762],[1396 1763],[1395 1763],[1393 1765],[1392 1765],[1391 1766],[1390 1766],[1388 1768],[1387 1768],[1386 1769],[1385 1769],[1383 1771],[1382 1771],[1381 1772],[1380 1772],[1378 1774],[1377 1774],[1376 1775],[1375 1775],[1373 1777],[1372 1777],[1371 1778],[1370 1778],[1368 1780],[1367 1780],[1366 1781],[1365 1781],[1363 1783],[1362 1783],[1361 1784],[1360 1784],[1358 1786],[1357 1786],[1356 1787],[1355 1787],[1353 1789],[1352 1789],[1351 1790],[1350 1790],[1348 1792],[1347 1792],[1346 1793],[1345 1793],[1343 1795],[1342 1795],[1341 1796],[1340 1796],[1338 1798],[1337 1798],[1336 1799],[1335 1799],[1333 1801],[1332 1801],[1331 1802],[1330 1802],[1328 1804],[1327 1804],[1326 1805],[1325 1805],[1323 1807],[1322 1807],[1321 1808],[1320 1808],[1318 1810],[1317 1810],[1316 1811],[1315 1811],[1313 1813],[1312 1813],[1311 1814],[1310 1814],[1308 1816],[1307 1816],[1306 1817],[1305 1817],[1303 1819],[1302 1819],[1301 1820],[1300 1820],[1298 1822],[1297 1822],[1296 1823],[1295 1823],[1293 1825],[1292 1825],[1291 1826],[1291 1937],[1401 1937],[1401 1760] : pl : [1349,1866]
contour_details : [1626 1730],[1625 1731],[1464 1731],[1463 1732],[1413 1732],[1413 2183],[1738 2183],[1738 1730] : cuisine : [1597,1944]
contour_details : [1307 1540],[1307 1572],[1306 1573],[1306 1613],[1305 1614],[1305 1621],[1304 1622],[1085 1622],[1085 1667],[1084 1668],[1084 1719],[1083 1720],[1083 1725],[1082 1726],[1051 1726],[1050 1727],[1005 1727],[1004 1728],[958 1728],[957 1729],[911 1729],[910 1730],[865 1730],[864 1731],[818 1731],[817 1732],[804 1732],[804 1785],[803 1786],[752 1786],[752 2347],[1387 2347],[1387 2180],[1388 2179],[1401 2179],[1401 1950],[1190 1950],[1189 1949],[1189 1730],[1177 1718],[1178 1717],[1401 1717],[1401 1540] : sejour : [970,2019]
