25
3
1.37909019013
4
rectangle
17
67
72
92
25.7099202644
0.0
0.0
0.0
0.0
0.0
0.0
0.0
0.024
0.048
0.072
0.064
0.064
0.032
0.048
0.048
0.048
0.024
0.04
0.032
0.032
0.048
0.04
0.104
0.136
0.088
0.145676639928
0.056
0.048
0.04
0.096
0.072
0.048
0.032
0.024
0.032
0.016
0.024
0.016
0.008
0.008
0.008
0.008
0.016
0.008
0.016
0.024
0.04
0.04
0.024
0.016
0.024
3
unknown
23
61
58
72
20.6155281281
0.0
0.0294117647059
0.0196078431373
0.0196078431373
0.0490196078431
0.0196078431373
0.0588235294118
0.0392156862745
0.0392156862745
0.0392156862745
0.0392156862745
0.0196078431373
0.0196078431373
0.0392156862745
0.0392156862745
0.0392156862745
0.0196078431373
0.0392156862745
0.0490196078431
0.0392156862745
0.0980392156863
0.0882352941176
0.0294117647059
0.078431372549
0.0392156862745
0.0862122431852
0.137254901961
0.117647058824
0.107843137255
0.0490196078431
0.0196078431373
0.00980392156863
0.0196078431373
0.00980392156863
0.00980392156863
0.0
0.00980392156863
0.0
0.00980392156863
0.0
0.0
0.0
0.0
0.0
0.00980392156863
0.0
0.0
0.0490196078431
0.0588235294118
0.0882352941176
0.0882352941176
2
unknown
23
62
18
65
25.5538646784
0.0
0.0
0.0
0.0
0.0
0.0
0.0
0.0
0.0
0.0
0.0
0.0
0.0
0.0
0.0
0.0
0.0
0.0606060606061
0.0984848484848
0.151515151515
0.121212121212
0.159090909091
0.174242424242
0.189393939394
0.0378787878788
0.242446871479
0.0378787878788
0.030303030303
0.0454545454545
0.0378787878788
0.0454545454545
0.0378787878788
0.0378787878788
0.0378787878788
0.0454545454545
0.0378787878788
0.0454545454545
0.0454545454545
0.030303030303
0.0227272727273
0.0227272727273
0.0151515151515
0.0227272727273
0.0151515151515
0.0151515151515
0.0227272727273
0.0151515151515
0.0227272727273
0.0151515151515
0.0151515151515
0.0151515151515
2
3
4
1
1
0.215652173913
touch
2
3
1
1
0.126272912424
floor
