25
1
0
2
unknown
26
55
21
50
15.8113883008
0.0
0.0
0.0
0.0
0.0
0.0
0.0
0.0
0.0
0.0
0.0
0.0
0.0
0.0
0.0
0.0
0.0
0.0
0.0
0.0125
0.2375
0.1625
0.15
0.2
0.1875
0.262553498313
0.0375
0.05
0.05
0.05
0.0375
0.025
0.0375
0.0375
0.05
0.0375
0.05
0.05
0.0125
0.025
0.0125
0.025
0.0125
0.025
0.0125
0.0125
0.0125
0.025
0.0125
0.025
0.0125
0
