contour_details : [1305 1450],[1305 1474],[1304 1475],[1015 1475],[1015 2104],[1071 2104],[1072 2103],[1152 2103],[1153 2102],[1233 2102],[1234 2101],[1314 2101],[1315 2100],[1395 2100],[1396 2099],[1419 2099],[1419 1450] : sejour : [1219,2006]
contour_details : [1435 1445],[1435 1874],[1819 1874],[1819 1815],[1818 1814],[1818 1727],[1817 1726],[1817 1638],[1816 1637],[1816 1550],[1815 1549],[1815 1462],[1814 1461],[1814 1445] : repas : [1662,1606]
contour_details : [1230 1165],[1230 1449],[1294 1449],[1294 1165] : pl : [1267,1300]
contour_details : [1545 1025],[1545 1049],[1544 1050],[1544 1128],[1543 1129],[1543 1207],[1542 1208],[1542 1286],[1541 1287],[1541 1365],[1540 1366],[1540 1419],[1694 1419],[1695 1420],[1695 1429],[1959 1429],[1959 1025] : cuisine : [1731,1179]
contour_details : [1310 900],[1310 1434],[1524 1434],[1524 1362],[1523 1361],[1523 1255],[1522 1254],[1522 1148],[1521 1147],[1521 1041],[1520 1040],[1520 934],[1519 933],[1519 900] : hall : [1389,1160]
contour_details : [1645 660],[1645 899],[1644 900],[1530 900],[1530 1014],[1754 1014],[1754 765],[1755 764],[2364 764],[2364 660] : degagement : [1878,725]
