contour_details : [1695 1380],[1695 1479],[1814 1479],[1814 1380]
contour_details : [1250 1160],[1250 1449],[1304 1449],[1305 1450],[1305 1484],[1374 1484],[1375 1485],[1375 1869],[1474 1869],[1474 1485],[1475 1484],[1524 1484],[1524 1385],[1350 1385],[1349 1384],[1349 1160]
contour_details : [1475 900],[1475 1009],[1574 1009],[1574 900]
