25
2
2.2475520704
2
rectangle
10
115
10
115
74.2495791234
0.0
0.0
0.0
0.0
0.0
0.0
0.0
0.0
0.0
0.0
0.0
0.0
0.0
0.0
0.0
0.0
0.0
0.000992296644471
0.000705052878966
0.000848674761718
0.000639770204988
0.000535317926622
0.000522261391827
0.000424337380859
0.000437393915655
0.0
0.0
0.0
0.0
0.0
0.0
0.0
0.0
0.0
0.0
0.0
0.0
0.0
0.0
0.0
0.0
0.0
0.000992296644471
0.000705052878966
0.000848674761718
0.000639770204988
0.000535317926622
0.000522261391827
0.000424337380859
0.000437393915655
0.0301542187785
0.000169734952344
0.000182791487139
0.000182791487139
0.000221961091526
0.000235017626322
0.00024154589372
0.000274187230709
0.000248074161118
0.000215432824128
0.000195848021935
0.000169734952344
0.000156678417548
0.000110980545763
7.8339208774e-05
8.48674761718e-05
9.79240109675e-05
0.000104452278365
0.000124037080559
0.000130565347957
0.000117508813161
0.000117508813161
0.000104452278365
9.13957435697e-05
9.13957435697e-05
7.8339208774e-05
0.000169734952344
0.000182791487139
0.000182791487139
0.000221961091526
0.000235017626322
0.00024154589372
0.000274187230709
0.000248074161118
0.000215432824128
0.000195848021935
0.000169734952344
0.000156678417548
0.000110980545763
7.8339208774e-05
8.48674761718e-05
9.79240109675e-05
0.000104452278365
0.000124037080559
0.000130565347957
0.000117508813161
0.000117508813161
0.000104452278365
9.13957435697e-05
9.13957435697e-05
7.8339208774e-05
3
rectangle
13
112
15
103
64.4437739429
0.0
0.0
0.0
0.0
0.0
0.0
0.0
0.0
0.0
0.0
0.0
0.0
0.0
0.0
0.0
0.0
1.05639992428e-07
3.84529572437e-07
3.42273575466e-07
5.45102360927e-07
4.43687968196e-07
2.53535981827e-07
1.85926386673e-07
2.02828785461e-07
1.47895989399e-07
0.0
0.0
0.0
0.0
0.0
0.0
0.0
0.0
0.0
0.0
0.0
0.0
0.0
0.0
0.0
0.0
1.05639992428e-07
3.84529572437e-07
3.42273575466e-07
5.45102360927e-07
4.43687968196e-07
2.53535981827e-07
1.85926386673e-07
2.02828785461e-07
1.47895989399e-07
0.0
0.0
0.0
0.0
0.0
0.0
0.0
0.0
0.0
0.0
0.0
0.0
0.0
0.0
0.0
0.0
1.05639992428e-07
3.84529572437e-07
3.42273575466e-07
5.45102360927e-07
4.43687968196e-07
2.53535981827e-07
1.85926386673e-07
2.02828785461e-07
1.47895989399e-07
0.0
0.0
0.0
0.0
0.0
0.0
0.0
0.0
0.0
0.0
0.0
0.0
0.0
0.0
0.0
0.0
1.05639992428e-07
3.84529572437e-07
3.42273575466e-07
5.45102360927e-07
4.43687968196e-07
2.53535981827e-07
1.85926386673e-07
2.02828785461e-07
1.47895989399e-07
0.0930490128905
1.3099359061e-07
1.09865592125e-07
1.09865592125e-07
1.01414392731e-07
1.01414392731e-07
1.05639992428e-07
1.14091191822e-07
1.01414392731e-07
8.87375936393e-08
9.71887930335e-08
8.87375936393e-08
1.3099359061e-07
6.33839954566e-08
5.91583957595e-08
4.64815966682e-08
4.22559969711e-08
4.64815966682e-08
4.64815966682e-08
5.49327960624e-08
5.07071963653e-08
5.91583957595e-08
4.22559969711e-08
4.64815966682e-08
4.22559969711e-08
5.07071963653e-08
1.3099359061e-07
1.09865592125e-07
1.09865592125e-07
1.01414392731e-07
1.01414392731e-07
1.05639992428e-07
1.14091191822e-07
1.01414392731e-07
8.87375936393e-08
9.71887930335e-08
8.87375936393e-08
1.3099359061e-07
6.33839954566e-08
5.91583957595e-08
4.64815966682e-08
4.22559969711e-08
4.64815966682e-08
4.64815966682e-08
5.49327960624e-08
5.07071963653e-08
5.91583957595e-08
4.22559969711e-08
4.64815966682e-08
4.22559969711e-08
5.07071963653e-08
1.3099359061e-07
1.09865592125e-07
1.09865592125e-07
1.01414392731e-07
1.01414392731e-07
1.05639992428e-07
1.14091191822e-07
1.01414392731e-07
8.87375936393e-08
9.71887930335e-08
8.87375936393e-08
1.3099359061e-07
6.33839954566e-08
5.91583957595e-08
4.64815966682e-08
4.22559969711e-08
4.64815966682e-08
4.64815966682e-08
5.49327960624e-08
5.07071963653e-08
5.91583957595e-08
4.22559969711e-08
4.64815966682e-08
4.22559969711e-08
5.07071963653e-08
1.3099359061e-07
1.09865592125e-07
1.09865592125e-07
1.01414392731e-07
1.01414392731e-07
1.05639992428e-07
1.14091191822e-07
1.01414392731e-07
8.87375936393e-08
9.71887930335e-08
8.87375936393e-08
1.3099359061e-07
6.33839954566e-08
5.91583957595e-08
4.64815966682e-08
4.22559969711e-08
4.64815966682e-08
4.64815966682e-08
5.49327960624e-08
5.07071963653e-08
5.91583957595e-08
4.22559969711e-08
4.64815966682e-08
4.22559969711e-08
5.07071963653e-08
1
2
3
1
1
0.786691944881
floor
