contour_details : [683 1380],[683 1864],[766 1864],[767 1863],[885 1863],[886 1862],[1004 1862],[1005 1861],[1123 1861],[1124 1860],[1242 1860],[1243 1859],[1277 1859],[1277 1380] : sejour : [920,1587]
contour_details : [1300 1160],[1300 1864],[1769 1864],[1769 1575],[1730 1575],[1729 1574],[1729 1160] : repas : [1478,1516]
contour_details : [1745 1015],[1745 1559],[2229 1559],[2229 1325],[2140 1325],[2139 1324],[2139 1015] : cuisine : [1942,1272]
contour_details : [1670 1010],[1670 1149],[1729 1149],[1729 1010] : pl : [1705,1075]
contour_details : [1670 885],[1670 994],[2604 994],[2604 885] : degagement : [1988,953]
contour_details : [1300 715],[1300 1139],[1479 1139],[1479 715] : cellier : [1397,891]
contour_details : [1495 705],[1495 1149],[1659 1149],[1659 1122],[1660 1121],[1660 1033],[1661 1032],[1661 944],[1662 943],[1662 855],[1663 854],[1663 766],[1664 765],[1664 705] : hall : [1559,869]
