contour_details : [910 1900],[910 1959],[1109 1959],[1109 1900] : placard : [1008,1935]
contour_details : [1120 1895],[1120 2034],[1214 2034],[1214 1895] : wc : [1166,1920]
contour_details : [635 1785],[635 1959],[738 1959],[738 1885],[739 1884],[1228 1884],[1228 1785] : degagement : [822,1833]
contour_details : [775 1665],[775 1774],[834 1774],[834 1665] : pl : [814,1722]
contour_details : [1530 1545],[1530 2030],[1534 2034],[1849 2034],[1849 1545] : sejour : [1644,1787]
contour_details : [1040 1545],[1040 1774],[1204 1774],[1204 1742],[1203 1741],[1203 1696],[1202 1695],[1202 1650],[1201 1649],[1201 1606],[1200 1605],[1200 1560],[1199 1559],[1199 1545] : dress : [1118,1643]
contour_details : [775 1470],[775 1659],[844 1659],[845 1660],[845 1774],[1029 1774],[1029 1530],[1030 1529],[1094 1529],[1094 1470] : bains : [918,1627]
contour_details : [1535 1145],[1535 1534],[1849 1534],[1849 1145] : repas : [1646,1379]
contour_details : [995 1130],[995 1280],[1045 1330],[1045 1459],[1109 1459],[1110 1460],[1110 1534],[1524 1534],[1524 1145],[1330 1145],[1329 1144],[1329 1130] : cuisine : [1203,1320]
