contour_details : [910 1900],[910 1959],[1109 1959],[1109 1900] : placard : [1008,1935]
contour_details : [1120 1895],[1120 2034],[1214 2034],[1214 1895] : wc : [1166,1920]
contour_details : [635 1785],[635 1959],[738 1959],[738 1885],[739 1884],[1228 1884],[1228 1785] : degagement : [822,1833]
contour_details : [775 1665],[775 1774],[834 1774],[834 1665] : pl : [814,1722]
contour_details : [1530 1545],[1530 2030],[1534 2034],[1849 2034],[1849 1545] : sejour : [1644,1787]
contour_details : [1040 1545],[1040 1774],[1204 1774],[1204 1742],[1203 1741],[1203 1696],[1202 1695],[1202 1650],[1201 1649],[1201 1606],[1200 1605],[1200 1560],[1199 1559],[1199 1545] : dress : [1118,1643]
contour_details : [775 1470],[775 1659],[844 1659],[845 1660],[845 1774],[1029 1774],[1029 1530],[1030 1529],[1094 1529],[1094 1470] : bains : [918,1627]
contour_details : [1460 1145],[1460 1534],[1849 1534],[1849 1145] : repas : [1646,1379]
contour_details : [1000 1130],[1000 1144],[999 1145],[999 1252],[1000 1253],[1000 1284],[1006 1290],[1006 1291],[1016 1301],[1016 1302],[1026 1312],[1026 1313],[1036 1323],[1036 1324],[1045 1333],[1045 1346],[1046 1347],[1046 1371],[1047 1372],[1047 1393],[1048 1394],[1048 1417],[1049 1418],[1049 1439],[1050 1440],[1050 1460],[1051 1461],[1103 1461],[1104 1462],[1104 1469],[1105 1470],[1105 1504],[1106 1505],[1106 1534],[1446 1534],[1446 1145],[1283 1145],[1282 1144],[1282 1130] : cuisine : [1203,1320]
