contour_details : [2120 1680],[2120 1779],[2679 1779],[2679 1680]
contour_details : [1830 1250],[1830 1294],[1829 1295],[1785 1295],[1785 1394],[1999 1394],[2000 1395],[2000 1654],[2099 1654],[2099 1295],[1930 1295],[1929 1294],[1929 1250]
contour_details : [1885 1125],[1885 1224],[1984 1224],[1984 1125]
contour_details : [1650 1120],[1650 1219],[1869 1219],[1869 1120]
contour_details : [2015 1030],[2015 1129],[2199 1129],[2199 1030]
