contour_details : [2055 1735],[2055 1793],[2056 1794],[2056 1879],[2057 1880],[2057 1964],[2058 1965],[2058 2050],[2059 2051],[2059 2136],[2060 2137],[2060 2164],[2679 2164],[2679 1735] : sejour : [2350,1919]
contour_details : [1879 1255],[1865 1269],[1864 1269],[1847 1286],[1846 1286],[1828 1304],[1827 1304],[1809 1322],[1808 1322],[1791 1339],[1790 1339],[1779 1350],[1555 1350],[1555 1388],[1556 1389],[1556 1444],[1557 1445],[1557 1501],[1558 1502],[1558 1557],[1559 1558],[1559 1613],[1560 1614],[1560 1619],[1879 1619] : cuisine : [1832,1497]
contour_details : [1890 1180],[1890 1624],[1914 1624],[1915 1625],[1915 1654],[2054 1654],[2055 1655],[2055 1719],[2676 1719],[2676 1660],[2677 1659],[2839 1659],[2839 1180] : repas : [2397,1312]
contour_details : [1647 1100],[1647 1164],[1876 1164],[1876 1100] : pl : [1775,1150]
contour_details : [1504 1100],[1450 1154],[1450 1155],[1550 1255],[1550 1334],[1785 1334],[1869 1250],[1869 1180],[1640 1180],[1639 1179],[1639 1100] : hall : [1653,1264]
contour_details : [2015 1090],[2015 1149],[2199 1149],[2199 1142],[2198 1141],[2198 1130],[2197 1129],[2197 1118],[2196 1117],[2196 1106],[2195 1105],[2195 1094],[2194 1093],[2194 1090] : pl : [2100,1129]
contour_details : [1890 975],[1890 1164],[1989 1164],[1989 1073],[1990 1072],[2194 1072],[2194 975] : degt : [2021,1015]
