contour_details : [523 1945],[523 1952],[522 1953],[522 1961],[521 1962],[521 1970],[520 1971],[520 1974],[519 1975],[510 1975],[510 2419],[571 2419],[572 2418],[658 2418],[659 2417],[746 2417],[747 2416],[833 2416],[834 2415],[921 2415],[922 2414],[947 2414],[947 2407],[948 2406],[948 2338],[949 2337],[949 2269],[950 2268],[950 2200],[951 2199],[951 2131],[952 2130],[952 2061],[953 2060],[953 1992],[954 1991],[954 1945] : sejour : [696,2180]
contour_details : [970 1940],[970 2419],[1655 2419],[1655 2371],[1654 2370],[1654 2305],[1653 2304],[1653 2242],[1652 2241],[1652 2175],[1651 2174],[1651 2109],[1650 2108],[1650 2042],[1649 2041],[1649 1976],[1648 1975],[1648 1940] : repas : [1415,2180]
contour_details : [965 1855],[965 1919],[1169 1919],[1169 1911],[1168 1910],[1168 1897],[1167 1896],[1167 1884],[1166 1883],[1166 1871],[1165 1870],[1165 1857],[1164 1856],[1164 1855] : placard : [1054,1879]
contour_details : [1185 1555],[1185 1924],[1649 1924],[1649 1555] : cuisine : [1396,1690]
contour_details : [965 1300],[965 1394],[976 1394],[977 1395],[1017 1395],[1018 1396],[1058 1396],[1059 1397],[1099 1397],[1100 1398],[1140 1398],[1141 1399],[1169 1399],[1169 1300] : wc : [998,1330]
contour_details : [855 1195],[855 1929],[949 1929],[949 1840],[950 1839],[1164 1839],[1164 1735],[1070 1735],[1069 1734],[1069 1634],[1060 1625],[1060 1744],[1059 1745],[955 1745],[954 1744],[954 1195] : degt : [926,1791]
contour_details : [760 1195],[760 1239],[759 1240],[750 1240],[750 1494],[759 1494],[764 1499],[834 1499],[834 1481],[835 1480],[835 1420],[836 1419],[836 1359],[837 1358],[837 1298],[838 1297],[838 1237],[839 1236],[839 1195] : pl : [797,1364]
