25
9
1.0
3
rectangle
63
91
22
51
19.7989898732
0.0
0.0
0.0
0.0
0.0
0.0
0.0
0.0
0.0
0.0
0.0
0.0
0.0
0.0
0.0
0.0
0.0636363636364
0.172727272727
0.2
0.145454545455
0.0727272727273
0.127272727273
0.0727272727273
0.0727272727273
0.0545454545455
0.265600453525
0.0272727272727
0.0363636363636
0.0363636363636
0.0363636363636
0.0545454545455
0.0545454545455
0.0545454545455
0.0545454545455
0.0363636363636
0.0363636363636
0.0363636363636
0.0363636363636
0.00909090909091
0.0181818181818
0.0181818181818
0.0181818181818
0.0181818181818
0.0272727272727
0.0272727272727
0.0272727272727
0.0181818181818
0.0181818181818
0.0181818181818
0.0181818181818
0.00909090909091
10
rectangle
92
121
81
110
19.7989898732
0.0
0.0
0.0
0.0
0.0
0.0
0.0
0.0
0.0
0.0
0.0
0.0
0.0
0.0
0.0
0.0
0.0
0.178571428571
0.214285714286
0.142857142857
0.0714285714286
0.142857142857
0.0714285714286
0.0714285714286
0.0714285714286
0.26995455932
0.0267857142857
0.0357142857143
0.0357142857143
0.0357142857143
0.0535714285714
0.0535714285714
0.0535714285714
0.0535714285714
0.0357142857143
0.0357142857143
0.0357142857143
0.0357142857143
0.00892857142857
0.0178571428571
0.0178571428571
0.0178571428571
0.0178571428571
0.0267857142857
0.0267857142857
0.0267857142857
0.0267857142857
0.0178571428571
0.0178571428571
0.0178571428571
0.00892857142857
4
rectangle
92
121
22
51
19.7989898732
0.0
0.0
0.0
0.0
0.0
0.0
0.0
0.0
0.0
0.0
0.0
0.0
0.0
0.0
0.0
0.0
0.0
0.178571428571
0.214285714286
0.142857142857
0.0714285714286
0.142857142857
0.0714285714286
0.0714285714286
0.0714285714286
0.26995455932
0.0267857142857
0.0357142857143
0.0357142857143
0.0357142857143
0.0535714285714
0.0535714285714
0.0535714285714
0.0535714285714
0.0357142857143
0.0357142857143
0.0357142857143
0.0357142857143
0.00892857142857
0.0178571428571
0.0178571428571
0.0178571428571
0.0178571428571
0.0267857142857
0.0267857142857
0.0267857142857
0.0267857142857
0.0178571428571
0.0178571428571
0.0178571428571
0.00892857142857
6
rectangle
63
91
52
80
19.7989898732
0.0
0.0
0.0
0.0
0.0
0.0
0.0
0.0
0.0
0.0
0.0
0.0
0.0
0.0
0.0
0.0
0.12962962963
0.166666666667
0.185185185185
0.148148148148
0.0740740740741
0.111111111111
0.0740740740741
0.0648148148148
0.037037037037
0.261557355286
0.0277777777778
0.037037037037
0.037037037037
0.037037037037
0.0555555555556
0.0555555555556
0.0555555555556
0.0462962962963
0.037037037037
0.037037037037
0.037037037037
0.037037037037
0.00925925925926
0.0185185185185
0.0185185185185
0.0185185185185
0.0185185185185
0.0185185185185
0.0277777777778
0.0277777777778
0.0185185185185
0.0185185185185
0.0185185185185
0.0185185185185
0.00925925925926
5
rectangle
33
62
52
80
19.7989898732
0.0
0.0
0.0
0.0
0.0
0.0
0.0
0.0
0.0
0.0
0.0
0.0
0.0
0.0
0.0
0.0
0.0636363636364
0.172727272727
0.2
0.145454545455
0.0727272727273
0.127272727273
0.0727272727273
0.0727272727273
0.0545454545455
0.265600453525
0.0272727272727
0.0363636363636
0.0363636363636
0.0363636363636
0.0545454545455
0.0545454545455
0.0545454545455
0.0454545454545
0.0363636363636
0.0363636363636
0.0363636363636
0.0363636363636
0.00909090909091
0.0181818181818
0.0181818181818
0.0181818181818
0.0181818181818
0.0181818181818
0.0272727272727
0.0272727272727
0.0272727272727
0.0181818181818
0.0181818181818
0.0181818181818
0.00909090909091
7
rectangle
92
121
52
80
19.7989898732
0.0
0.0
0.0
0.0
0.0
0.0
0.0
0.0
0.0
0.0
0.0
0.0
0.0
0.0
0.0
0.0
0.0636363636364
0.172727272727
0.2
0.145454545455
0.0727272727273
0.127272727273
0.0727272727273
0.0727272727273
0.0545454545455
0.265600453525
0.0272727272727
0.0363636363636
0.0363636363636
0.0363636363636
0.0545454545455
0.0545454545455
0.0545454545455
0.0454545454545
0.0363636363636
0.0363636363636
0.0363636363636
0.0363636363636
0.00909090909091
0.0181818181818
0.0181818181818
0.0181818181818
0.0181818181818
0.0181818181818
0.0272727272727
0.0272727272727
0.0272727272727
0.0181818181818
0.0181818181818
0.0181818181818
0.00909090909091
8
rectangle
33
62
81
110
19.7989898732
0.0
0.0
0.0
0.0
0.0
0.0
0.0
0.0
0.0
0.0
0.0
0.0
0.0
0.0
0.0
0.0
0.0
0.178571428571
0.214285714286
0.142857142857
0.0714285714286
0.142857142857
0.0714285714286
0.0714285714286
0.0714285714286
0.26995455932
0.0267857142857
0.0357142857143
0.0357142857143
0.0357142857143
0.0535714285714
0.0535714285714
0.0535714285714
0.0535714285714
0.0357142857143
0.0357142857143
0.0357142857143
0.0357142857143
0.00892857142857
0.0178571428571
0.0178571428571
0.0178571428571
0.0178571428571
0.0267857142857
0.0267857142857
0.0267857142857
0.0267857142857
0.0178571428571
0.0178571428571
0.0178571428571
0.00892857142857
2
rectangle
33
62
22
51
19.7989898732
0.0
0.0
0.0
0.0
0.0
0.0
0.0
0.0
0.0
0.0
0.0
0.0
0.0
0.0
0.0
0.0
0.0
0.178571428571
0.214285714286
0.142857142857
0.0714285714286
0.142857142857
0.0714285714286
0.0714285714286
0.0714285714286
0.26995455932
0.0267857142857
0.0357142857143
0.0357142857143
0.0357142857143
0.0535714285714
0.0535714285714
0.0535714285714
0.0535714285714
0.0357142857143
0.0357142857143
0.0357142857143
0.0357142857143
0.00892857142857
0.0178571428571
0.0178571428571
0.0178571428571
0.0178571428571
0.0267857142857
0.0267857142857
0.0267857142857
0.0267857142857
0.0178571428571
0.0178571428571
0.0178571428571
0.00892857142857
9
rectangle
63
91
81
110
19.7989898732
0.0
0.0
0.0
0.0
0.0
0.0
0.0
0.0
0.0
0.0
0.0
0.0
0.0
0.0
0.0
0.0
0.0636363636364
0.172727272727
0.2
0.145454545455
0.0727272727273
0.127272727273
0.0727272727273
0.0727272727273
0.0545454545455
0.265600453525
0.0272727272727
0.0363636363636
0.0363636363636
0.0363636363636
0.0545454545455
0.0545454545455
0.0545454545455
0.0545454545455
0.0363636363636
0.0363636363636
0.0363636363636
0.0363636363636
0.00909090909091
0.0181818181818
0.0181818181818
0.0181818181818
0.0181818181818
0.0272727272727
0.0272727272727
0.0272727272727
0.0181818181818
0.0181818181818
0.0181818181818
0.0181818181818
0.00909090909091
20
3
4
1
1
0.964285714286
touch
3
6
1
1
0.964285714286
touch
3
5
1
1
1.0
touch
3
7
1
1
1.0
touch
2
3
1
1
0.964285714286
touch
6
10
1
1
0.929846938776
floor
7
10
1
1
0.964285714286
floor
9
10
1
1
0.964285714286
floor
4
6
1
1
0.929846938776
touch
4
7
1
1
0.964285714286
touch
5
6
1
1
0.964285714286
touch
6
7
1
1
0.964285714286
touch
6
8
1
1
0.929846938776
touch
2
6
1
1
0.929846938776
touch
6
9
1
1
0.964285714286
touch
5
8
1
1
0.964285714286
touch
2
5
1
1
0.964285714286
touch
5
9
1
1
1.0
touch
7
9
1
1
1.0
touch
8
9
1
1
0.964285714286
touch
