<?xml version="1.0" encoding="UTF-8" standalone="no"?>
<!-- Created with Inkscape (http://www.inkscape.org/) -->

<svg
   xmlns:dc="http://purl.org/dc/elements/1.1/"
   xmlns:cc="http://creativecommons.org/ns#"
   xmlns:rdf="http://www.w3.org/1999/02/22-rdf-syntax-ns#"
   xmlns:svg="http://www.w3.org/2000/svg"
   xmlns="http://www.w3.org/2000/svg"
   xmlns:xlink="http://www.w3.org/1999/xlink"
   xmlns:sodipodi="http://sodipodi.sourceforge.net/DTD/sodipodi-0.dtd"
   xmlns:inkscape="http://www.inkscape.org/namespaces/inkscape"
   id="svg5284"
   version="1.1"
   inkscape:version="0.91 r13725"
   width="1275"
   height="1650"
   viewBox="0 0 1275 1650"
   sodipodi:docname="file_273_190.svg">
  <metadata
     id="metadata5290">
    <rdf:RDF>
      <cc:Work
         rdf:about="">
        <dc:format>image/svg+xml</dc:format>
        <dc:type
           rdf:resource="http://purl.org/dc/dcmitype/StillImage" />
        <dc:title></dc:title>
      </cc:Work>
    </rdf:RDF>
  </metadata>
  <defs
     id="defs5288" />
  <sodipodi:namedview
     pagecolor="#ffffff"
     bordercolor="#666666"
     borderopacity="1"
     objecttolerance="10"
     gridtolerance="10"
     guidetolerance="10"
     inkscape:pageopacity="0"
     inkscape:pageshadow="2"
     inkscape:window-width="1920"
     inkscape:window-height="997"
     id="namedview5286"
     showgrid="false"
     inkscape:zoom="0.57212121"
     inkscape:cx="290.54555"
     inkscape:cy="825"
     inkscape:window-x="-9"
     inkscape:window-y="-9"
     inkscape:window-maximized="1"
     inkscape:current-layer="svg5284" />
  <image
     sodipodi:absref="C:\Users\pierpaolo\Dropbox\Romani-15\Object Recognition New\file_273_190_bath.png"
     xlink:href="file_273_190_bath.png"
     y="0"
     x="0"
     id="image5292"
     preserveAspectRatio="none"
     height="1650"
     width="1275" />
  <rect
     style="fill:none;fill-opacity:1;stroke:#008000;stroke-width:2;stroke-linecap:round;stroke-linejoin:round;stroke-miterlimit:4;stroke-dasharray:none;stroke-opacity:1"
     id="rect5294"
     width="218.48517"
     height="253.44279"
     x="875.68854"
     y="767.31989"
     ry="1.92357" />
  <rect
     style="fill:none;fill-opacity:1;stroke:#ff0000;stroke-width:2;stroke-linecap:round;stroke-linejoin:round;stroke-miterlimit:4;stroke-dasharray:none;stroke-opacity:1"
     id="rect5836"
     width="29.713984"
     height="34.957626"
     x="1059.2161"
     y="915.88983"
     ry="1.92357" />
</svg>
