<?xml version="1.0" encoding="UTF-8" standalone="no"?>
<!-- Created with Inkscape (http://www.inkscape.org/) -->

<svg
   xmlns:dc="http://purl.org/dc/elements/1.1/"
   xmlns:cc="http://creativecommons.org/ns#"
   xmlns:rdf="http://www.w3.org/1999/02/22-rdf-syntax-ns#"
   xmlns:svg="http://www.w3.org/2000/svg"
   xmlns="http://www.w3.org/2000/svg"
   xmlns:xlink="http://www.w3.org/1999/xlink"
   xmlns:sodipodi="http://sodipodi.sourceforge.net/DTD/sodipodi-0.dtd"
   xmlns:inkscape="http://www.inkscape.org/namespaces/inkscape"
   id="svg4156"
   version="1.1"
   inkscape:version="0.91 r13725"
   width="1400"
   height="980"
   viewBox="0 0 1400 980"
   sodipodi:docname="file_265_220.svg">
  <metadata
     id="metadata4162">
    <rdf:RDF>
      <cc:Work
         rdf:about="">
        <dc:format>image/svg+xml</dc:format>
        <dc:type
           rdf:resource="http://purl.org/dc/dcmitype/StillImage" />
        <dc:title></dc:title>
      </cc:Work>
    </rdf:RDF>
  </metadata>
  <defs
     id="defs4160" />
  <sodipodi:namedview
     pagecolor="#ffffff"
     bordercolor="#666666"
     borderopacity="1"
     objecttolerance="10"
     gridtolerance="10"
     guidetolerance="10"
     inkscape:pageopacity="0"
     inkscape:pageshadow="2"
     inkscape:window-width="1920"
     inkscape:window-height="997"
     id="namedview4158"
     showgrid="false"
     inkscape:zoom="0.68113143"
     inkscape:cx="408.57313"
     inkscape:cy="490"
     inkscape:window-x="-9"
     inkscape:window-y="-9"
     inkscape:window-maximized="1"
     inkscape:current-layer="svg4156" />
  <image
     sodipodi:absref="C:\Users\pierpaolo\Dropbox\Romani-15\Object Recognition New\file_265_220_bath.png"
     xlink:href="file_265_220_bath.png"
     y="0"
     x="0"
     id="image4164"
     preserveAspectRatio="none"
     height="980"
     width="1400" />
  <rect
     style="fill:none;fill-opacity:1;stroke:#400000;stroke-width:2;stroke-linecap:round;stroke-linejoin:round;stroke-miterlimit:4;stroke-dasharray:none;stroke-opacity:1"
     id="rect4166"
     width="70.470978"
     height="165.90044"
     x="441.91177"
     y="33.046192"
     ry="1.92357" />
  <rect
     style="fill:none;fill-opacity:1;stroke:#b00000;stroke-width:2;stroke-linecap:round;stroke-linejoin:round;stroke-miterlimit:4;stroke-dasharray:none;stroke-opacity:1"
     id="rect4708"
     width="85.152435"
     height="57.257671"
     x="604.87592"
     y="46.259502"
     ry="1.92357" />
  <rect
     style="fill:none;fill-opacity:1;stroke:#ff0000;stroke-width:2;stroke-linecap:round;stroke-linejoin:round;stroke-miterlimit:4;stroke-dasharray:none;stroke-opacity:1"
     id="rect4710"
     width="44.044365"
     height="52.853237"
     x="629.83441"
     y="134.34824"
     ry="1.92357" />
  <rect
     style="fill:none;fill-opacity:1;stroke:#ff0000;stroke-width:2;stroke-linecap:round;stroke-linejoin:round;stroke-miterlimit:4;stroke-dasharray:none;stroke-opacity:1"
     id="rect4712"
     width="51.38509"
     height="54.321381"
     x="1313.9901"
     y="168.11557"
     ry="1.92357" />
  <rect
     style="fill:none;fill-opacity:1;stroke:#008000;stroke-width:2;stroke-linecap:round;stroke-linejoin:round;stroke-miterlimit:4;stroke-dasharray:none;stroke-opacity:1"
     id="rect4714"
     width="340.60974"
     height="283.35208"
     x="1033.5743"
     y="34.514339"
     ry="1.92357" />
  <rect
     style="fill:none;fill-opacity:1;stroke:#0000b0;stroke-width:2;stroke-linecap:round;stroke-linejoin:round;stroke-miterlimit:4;stroke-dasharray:none;stroke-opacity:1"
     id="rect4716"
     width="105.70647"
     height="19.08589"
     x="278.94763"
     y="472.02167"
     ry="1.92357" />
  <rect
     style="fill:none;fill-opacity:1;stroke:#0000b0;stroke-width:2;stroke-linecap:round;stroke-linejoin:round;stroke-miterlimit:4;stroke-dasharray:none;stroke-opacity:1"
     id="rect4718"
     width="27.89477"
     height="99.833885"
     x="554.95898"
     y="814.09961"
     ry="1.92357" />
  <rect
     style="fill:none;fill-opacity:1;stroke:#0000b0;stroke-width:2;stroke-linecap:round;stroke-linejoin:round;stroke-miterlimit:4;stroke-dasharray:none;stroke-opacity:1"
     id="rect4720"
     width="138.00568"
     height="39.639927"
     x="1212.6881"
     y="817.03583"
     ry="1.92357" />
</svg>
