25
2
1.0
2
unknown
11
58
13
45
25.3179778023
0.0
0.0
0.0
0.0
0.0
0.0
0.0
0.0
0.0
0.0
0.0
0.0
0.0
0.0
0.000566893424036
0.00330687830688
0.00236205593348
0.00151171579743
0.00151171579743
0.00141723356009
0.00179516250945
0.00160619803477
0.00188964474679
0.00170068027211
0.00198412698413
0.0
0.0
0.0
0.0
0.0
0.0
0.0
0.0
0.0
0.0
0.0
0.0
0.0
0.0
0.000566893424036
0.00330687830688
0.00236205593348
0.00151171579743
0.00151171579743
0.00141723356009
0.00179516250945
0.00160619803477
0.00188964474679
0.00170068027211
0.00198412698413
0.0741330808764
0.00113378684807
0.000850340136054
0.000661375661376
0.000850340136054
0.000755857898715
0.000944822373394
0.000661375661376
0.000850340136054
0.000472411186697
0.000944822373394
0.000472411186697
0.000850340136054
0.000188964474679
0.000377928949358
0.000283446712018
0.000377928949358
0.000283446712018
0.000472411186697
0.000283446712018
0.000472411186697
0.000661375661376
0.000472411186697
0.000377928949358
0.000472411186697
0.000377928949358
0.00113378684807
0.000850340136054
0.000661375661376
0.000850340136054
0.000755857898715
0.000944822373394
0.000661375661376
0.000850340136054
0.000472411186697
0.000944822373394
0.000472411186697
0.000850340136054
0.000188964474679
0.000377928949358
0.000283446712018
0.000377928949358
0.000283446712018
0.000472411186697
0.000283446712018
0.000472411186697
0.000661375661376
0.000472411186697
0.000377928949358
0.000472411186697
0.000377928949358
3
unknown
21
54
19
38
16.1245154966
0.0
0.0
0.0
0.0
0.0
0.0
0.0
0.0
0.0
0.0
0.0
0.0
0.0
0.027027027027
0.162162162162
0.148648648649
0.0675675675676
0.108108108108
0.0540540540541
0.027027027027
0.0810810810811
0.0540540540541
0.027027027027
0.121621621622
0.108108108108
0.214471465715
0.0540540540541
0.0405405405405
0.0810810810811
0.027027027027
0.0540540540541
0.027027027027
0.0540540540541
0.027027027027
0.027027027027
0.0540540540541
0.027027027027
0.027027027027
0.0135135135135
0.0135135135135
0.0135135135135
0.027027027027
0.0135135135135
0.0135135135135
0.027027027027
0.0135135135135
0.0135135135135
0.027027027027
0.027027027027
0.027027027027
0.0135135135135
1
2
3
1
1
0.377814845705
floor
