contour_details : [1534 2092],[1534 2157],[1533 2158],[1440 2158],[1440 2258],[1543 2258],[1543 2193],[1544 2192],[1835 2192],[1835 2092]
contour_details : [1380 1944],[1380 2110],[1479 2110],[1479 1944]
contour_details : [1538 1902],[1538 2002],[1665 2002],[1665 1902]
contour_details : [1684 1646],[1684 1746],[1781 1746],[1781 1646]
contour_details : [814 1590],[814 2108],[913 2108],[913 1590]
