contour_details : [1451 2218],[1451 2304],[1450 2305],[1450 2423],[1449 2424],[1449 2455],[1826 2455],[1826 2218] : cellier : [1623,2275]
contour_details : [1541 2138],[1541 2148],[1540 2149],[1540 2164],[1539 2165],[1539 2180],[1538 2181],[1538 2196],[1537 2197],[1537 2201],[1828 2201],[1828 2138] : placard : [1685,2174]
contour_details : [1652 1770],[1650 1772],[1649 1772],[1648 1773],[1647 1773],[1645 1775],[1644 1775],[1643 1776],[1642 1776],[1640 1778],[1639 1778],[1637 1780],[1636 1780],[1635 1781],[1634 1781],[1632 1783],[1631 1783],[1630 1784],[1629 1784],[1627 1786],[1626 1786],[1625 1787],[1624 1787],[1622 1789],[1621 1789],[1619 1791],[1618 1791],[1617 1792],[1616 1792],[1614 1794],[1613 1794],[1612 1795],[1611 1795],[1609 1797],[1608 1797],[1607 1798],[1606 1798],[1604 1800],[1603 1800],[1601 1802],[1600 1802],[1599 1803],[1598 1803],[1596 1805],[1595 1805],[1594 1806],[1593 1806],[1591 1808],[1590 1808],[1589 1809],[1588 1809],[1586 1811],[1585 1811],[1583 1813],[1582 1813],[1581 1814],[1580 1814],[1578 1816],[1577 1816],[1576 1817],[1575 1817],[1573 1819],[1572 1819],[1571 1820],[1570 1820],[1568 1822],[1567 1822],[1565 1824],[1564 1824],[1563 1825],[1562 1825],[1560 1827],[1559 1827],[1558 1828],[1557 1828],[1555 1830],[1554 1830],[1553 1831],[1552 1831],[1550 1833],[1549 1833],[1547 1835],[1546 1835],[1545 1836],[1545 1850],[1546 1851],[1546 1902],[1547 1903],[1547 1939],[1653 1939],[1653 1771] : pl : [1602,1880]
contour_details : [1695 1706],[1695 1739],[1694 1740],[1669 1740],[1669 1955],[1668 1956],[1433 1956],[1433 2201],[1523 2201],[1523 2124],[1524 2123],[1535 2123],[1536 2124],[1576 2124],[1577 2125],[1618 2125],[1619 2126],[1659 2126],[1660 2127],[1701 2127],[1702 2128],[1742 2128],[1743 2129],[1784 2129],[1785 2130],[1825 2130],[1826 2131],[1854 2131],[1855 2132],[1855 2641],[1970 2641],[1970 1946],[1971 1945],[2114 1945],[2114 1742],[1773 1742],[1773 1951],[1772 1952],[1759 1952],[1758 1951],[1758 1706] : hall : [1878,1889]
contour_details : [320 1602],[320 2175],[373 2175],[374 2174],[451 2174],[452 2173],[528 2173],[529 2172],[605 2172],[606 2171],[683 2171],[684 2170],[760 2170],[761 2169],[783 2169],[783 1602] : sejour : [520,1695]
contour_details : [794 1596],[794 2095],[839 2095],[840 2096],[997 2096],[998 2097],[1154 2097],[1155 2098],[1311 2098],[1312 2099],[1423 2099],[1423 1956],[1400 1956],[1399 1955],[1399 1596] : repas : [1173,1997]
contour_details : [1893 696],[1892 697],[1540 697],[1539 698],[1431 698],[1431 1519],[1446 1519],[1447 1520],[1447 1693],[2136 1693],[2136 696] : garage : [1700,1200]
