contour_details : [1218 1484],[1218 1551],[1217 1552],[1217 1763],[1216 1764],[1216 1906],[1485 1906],[1485 1633],[1484 1632],[1483 1632],[1482 1631],[1481 1631],[1480 1630],[1479 1630],[1477 1628],[1476 1628],[1475 1627],[1474 1627],[1473 1626],[1472 1626],[1471 1625],[1470 1625],[1468 1623],[1467 1623],[1466 1622],[1465 1622],[1464 1621],[1463 1621],[1461 1619],[1460 1619],[1459 1618],[1458 1618],[1457 1617],[1456 1617],[1455 1616],[1454 1616],[1452 1614],[1451 1614],[1450 1613],[1449 1613],[1448 1612],[1447 1612],[1446 1611],[1445 1611],[1443 1609],[1442 1609],[1441 1608],[1440 1608],[1439 1607],[1438 1607],[1436 1605],[1435 1605],[1434 1604],[1433 1604],[1432 1603],[1431 1603],[1430 1602],[1429 1602],[1427 1600],[1426 1600],[1425 1599],[1424 1599],[1423 1598],[1422 1598],[1421 1597],[1420 1597],[1418 1595],[1417 1595],[1416 1594],[1415 1594],[1414 1593],[1413 1593],[1411 1591],[1410 1591],[1409 1590],[1408 1590],[1407 1589],[1406 1589],[1405 1588],[1404 1588],[1402 1586],[1401 1586],[1400 1585],[1399 1585],[1398 1584],[1397 1584],[1396 1583],[1395 1583],[1393 1581],[1392 1581],[1391 1580],[1390 1580],[1389 1579],[1388 1579],[1387 1578],[1386 1578],[1384 1576],[1383 1576],[1382 1575],[1381 1575],[1380 1574],[1379 1574],[1377 1572],[1376 1572],[1375 1571],[1374 1571],[1373 1570],[1372 1570],[1371 1569],[1370 1569],[1368 1567],[1367 1567],[1366 1566],[1365 1566],[1364 1565],[1363 1565],[1362 1564],[1361 1564],[1359 1562],[1358 1562],[1357 1561],[1356 1561],[1355 1560],[1354 1560],[1352 1558],[1351 1558],[1350 1557],[1349 1557],[1348 1556],[1347 1556],[1346 1555],[1345 1555],[1343 1553],[1342 1553],[1341 1552],[1340 1552],[1339 1551],[1338 1551],[1337 1550],[1336 1550],[1334 1548],[1333 1548],[1332 1547],[1331 1547],[1330 1546],[1329 1546],[1328 1545],[1327 1545],[1325 1543],[1324 1543],[1323 1542],[1322 1542],[1321 1541],[1320 1541],[1318 1539],[1317 1539],[1316 1538],[1315 1538],[1314 1537],[1313 1537],[1312 1536],[1311 1536],[1309 1534],[1308 1534],[1307 1533],[1306 1533],[1305 1532],[1304 1532],[1303 1531],[1302 1531],[1300 1529],[1299 1529],[1298 1528],[1297 1528],[1296 1527],[1295 1527],[1293 1525],[1292 1525],[1291 1524],[1290 1524],[1289 1523],[1288 1523],[1287 1522],[1286 1522],[1284 1520],[1283 1520],[1282 1519],[1281 1519],[1280 1518],[1279 1518],[1278 1517],[1277 1517],[1275 1515],[1274 1515],[1273 1514],[1272 1514],[1271 1513],[1270 1513],[1268 1511],[1267 1511],[1266 1510],[1265 1510],[1264 1509],[1263 1509],[1262 1508],[1261 1508],[1259 1506],[1258 1506],[1257 1505],[1256 1505],[1255 1504],[1254 1504],[1253 1503],[1252 1503],[1250 1501],[1249 1501],[1248 1500],[1247 1500],[1246 1499],[1245 1499],[1244 1498],[1243 1498],[1241 1496],[1240 1496],[1239 1495],[1238 1495],[1237 1494],[1236 1494],[1234 1492],[1233 1492],[1232 1491],[1231 1491],[1230 1490],[1229 1490],[1228 1489],[1227 1489],[1225 1487],[1224 1487],[1223 1486],[1222 1486],[1221 1485],[1220 1485],[1219 1484] : repas : [1318,1703]
contour_details : [728 1441],[728 1516],[727 1517],[727 1748],[726 1749],[726 1904],[1205 1904],[1205 1441] : sejour : [848,1704]
contour_details : [848 1255],[848 1283],[847 1284],[847 1371],[846 1372],[846 1431],[1205 1431],[1205 1255] : hall : [1005,1336]
contour_details : [1707 1179],[1706 1180],[1473 1180],[1472 1181],[1278 1181],[1276 1183],[1275 1183],[1270 1188],[1269 1188],[1264 1193],[1263 1193],[1258 1198],[1257 1198],[1253 1202],[1252 1202],[1247 1207],[1246 1207],[1241 1212],[1240 1212],[1235 1217],[1234 1217],[1230 1221],[1229 1221],[1224 1226],[1223 1226],[1220 1229],[1220 1267],[1219 1268],[1219 1386],[1218 1387],[1218 1467],[1219 1467],[1221 1469],[1222 1469],[1223 1470],[1224 1470],[1225 1471],[1226 1471],[1228 1473],[1229 1473],[1230 1474],[1231 1474],[1232 1475],[1233 1475],[1235 1477],[1236 1477],[1237 1478],[1238 1478],[1239 1479],[1240 1479],[1242 1481],[1243 1481],[1244 1482],[1245 1482],[1247 1484],[1248 1484],[1249 1485],[1250 1485],[1251 1486],[1252 1486],[1254 1488],[1255 1488],[1256 1489],[1257 1489],[1258 1490],[1259 1490],[1261 1492],[1262 1492],[1263 1493],[1264 1493],[1265 1494],[1266 1494],[1268 1496],[1269 1496],[1270 1497],[1271 1497],[1272 1498],[1273 1498],[1275 1500],[1276 1500],[1277 1501],[1278 1501],[1279 1502],[1280 1502],[1282 1504],[1283 1504],[1284 1505],[1285 1505],[1286 1506],[1287 1506],[1289 1508],[1290 1508],[1291 1509],[1292 1509],[1294 1511],[1295 1511],[1296 1512],[1297 1512],[1298 1513],[1299 1513],[1301 1515],[1302 1515],[1303 1516],[1304 1516],[1305 1517],[1306 1517],[1308 1519],[1309 1519],[1310 1520],[1311 1520],[1312 1521],[1313 1521],[1315 1523],[1316 1523],[1317 1524],[1318 1524],[1319 1525],[1320 1525],[1322 1527],[1323 1527],[1324 1528],[1325 1528],[1326 1529],[1327 1529],[1329 1531],[1330 1531],[1331 1532],[1332 1532],[1333 1533],[1334 1533],[1336 1535],[1337 1535],[1338 1536],[1339 1536],[1340 1537],[1341 1537],[1343 1539],[1344 1539],[1345 1540],[1346 1540],[1348 1542],[1349 1542],[1350 1543],[1351 1543],[1352 1544],[1353 1544],[1355 1546],[1356 1546],[1357 1547],[1358 1547],[1359 1548],[1360 1548],[1362 1550],[1363 1550],[1364 1551],[1365 1551],[1366 1552],[1367 1552],[1369 1554],[1370 1554],[1371 1555],[1372 1555],[1373 1556],[1374 1556],[1376 1558],[1377 1558],[1378 1559],[1379 1559],[1380 1560],[1381 1560],[1383 1562],[1384 1562],[1385 1563],[1386 1563],[1387 1564],[1388 1564],[1390 1566],[1391 1566],[1392 1567],[1393 1567],[1395 1569],[1396 1569],[1397 1570],[1398 1570],[1399 1571],[1400 1571],[1402 1573],[1403 1573],[1404 1574],[1405 1574],[1406 1575],[1407 1575],[1409 1577],[1410 1577],[1411 1578],[1412 1578],[1413 1579],[1414 1579],[1416 1581],[1417 1581],[1418 1582],[1419 1582],[1420 1583],[1421 1583],[1423 1585],[1424 1585],[1425 1586],[1426 1586],[1427 1587],[1428 1587],[1430 1589],[1431 1589],[1432 1590],[1433 1590],[1434 1591],[1435 1591],[1437 1593],[1438 1593],[1439 1594],[1440 1594],[1441 1595],[1442 1595],[1444 1597],[1445 1597],[1446 1598],[1447 1598],[1449 1600],[1450 1600],[1451 1601],[1452 1601],[1453 1602],[1454 1602],[1456 1604],[1457 1604],[1458 1605],[1459 1605],[1460 1606],[1461 1606],[1463 1608],[1464 1608],[1465 1609],[1466 1609],[1467 1610],[1468 1610],[1470 1612],[1471 1612],[1472 1613],[1473 1613],[1474 1614],[1475 1614],[1477 1616],[1478 1616],[1479 1617],[1480 1617],[1481 1618],[1482 1618],[1484 1620],[1485 1620],[1486 1621],[1487 1621],[1488 1622],[1489 1622],[1491 1624],[1492 1624],[1493 1625],[1494 1625],[1495 1626],[1496 1626],[1498 1628],[1499 1628],[1500 1629],[1745 1629],[1745 1179] : cuisine : [1463,1337]
contour_details : [844 1175],[844 1235],[1015 1235],[1015 1215],[1014 1214],[1014 1185],[1013 1184],[1013 1175] : placard : [926,1220]
contour_details : [842 1077],[842 1161],[1021 1161],[1021 1077] : wc : [956,1110]
contour_details : [1276 1063],[1276 1076],[1275 1077],[1028 1077],[1028 1249],[1046 1249],[1047 1248],[1138 1248],[1139 1247],[1211 1247],[1211 1221],[1213 1219],[1214 1219],[1217 1216],[1218 1216],[1222 1212],[1223 1212],[1227 1208],[1228 1208],[1231 1205],[1232 1205],[1236 1201],[1237 1201],[1241 1197],[1242 1197],[1245 1194],[1246 1194],[1250 1190],[1251 1190],[1255 1186],[1256 1186],[1260 1182],[1261 1182],[1264 1179],[1265 1179],[1269 1175],[1270 1175],[1274 1171],[1275 1171],[1277 1169],[2161 1169],[2161 1063] : degagement : [1577,1130]
