contour_details : [1318 1859],[1317 1860],[1317 1861],[1314 1864],[1314 1865],[1310 1869],[1310 1870],[1306 1874],[1306 1875],[1303 1878],[1303 1879],[1299 1883],[1299 1884],[1296 1887],[1296 1888],[1292 1892],[1292 1893],[1288 1897],[1288 1898],[1285 1901],[1285 1902],[1281 1906],[1281 1907],[1277 1911],[1277 1912],[1274 1915],[1274 1916],[1270 1920],[1270 1921],[1266 1925],[1266 1926],[1263 1929],[1263 1930],[1259 1934],[1259 1935],[1257 1937],[1261 1941],[1262 1941],[1266 1945],[1267 1945],[1270 1948],[1271 1948],[1275 1952],[1276 1952],[1279 1955],[1280 1955],[1284 1959],[1285 1959],[1289 1963],[1290 1963],[1293 1966],[1294 1966],[1298 1970],[1299 1970],[1303 1974],[1304 1974],[1307 1977],[1308 1977],[1312 1981],[1313 1981],[1315 1983],[1315 1989],[1314 1990],[1314 2044],[1313 2045],[1313 2099],[1312 2100],[1312 2145],[1349 2145],[1350 2146],[1367 2146],[1368 2147],[1368 2154],[1407 2154],[1408 2153],[1597 2153],[1598 2152],[1747 2152],[1747 2052],[1710 2052],[1709 2053],[1520 2053],[1519 2054],[1414 2054],[1413 2053],[1413 2023],[1414 2022],[1414 1968],[1415 1967],[1415 1927],[1386 1927],[1385 1926],[1386 1925],[1386 1924],[1390 1920],[1390 1919],[1392 1917],[1388 1913],[1387 1913],[1384 1910],[1383 1910],[1379 1906],[1378 1906],[1374 1902],[1373 1902],[1370 1899],[1369 1899],[1365 1895],[1364 1895],[1360 1891],[1359 1891],[1356 1888],[1355 1888],[1351 1884],[1350 1884],[1347 1881],[1346 1881],[1342 1877],[1341 1877],[1337 1873],[1336 1873],[1333 1870],[1332 1870],[1328 1866],[1327 1866],[1323 1862],[1322 1862],[1319 1859]
contour_details : [1121 1746],[1121 1764],[1120 1765],[1120 1806],[1119 1807],[1119 1846],[1152 1846],[1153 1847],[1195 1847],[1196 1848],[1237 1848],[1238 1849],[1280 1849],[1281 1850],[1290 1850],[1290 1834],[1291 1833],[1291 1791],[1292 1790],[1292 1750],[1259 1750],[1258 1749],[1216 1749],[1215 1748],[1173 1748],[1172 1747],[1130 1747],[1129 1746]
contour_details : [1184 1540],[1184 1640],[1305 1640],[1305 1540]
contour_details : [1207 1309],[1206 1310],[1178 1310],[1177 1311],[1149 1311],[1148 1312],[1134 1312],[1134 1332],[1135 1333],[1135 1361],[1136 1362],[1136 1390],[1137 1391],[1137 1418],[1138 1419],[1138 1447],[1139 1448],[1139 1476],[1140 1477],[1140 1483],[1167 1483],[1168 1482],[1195 1482],[1196 1481],[1224 1481],[1225 1480],[1239 1480],[1239 1458],[1238 1457],[1238 1429],[1237 1428],[1237 1401],[1236 1400],[1236 1372],[1235 1371],[1235 1343],[1234 1342],[1234 1315],[1233 1314],[1233 1309]
