contour_details : [1102 1784],[1102 1888],[1202 1888],[1202 1784]
contour_details : [986 1732],[986 1831],[1071 1831],[1071 1732]
contour_details : [860 1731],[860 1830],[948 1830],[948 1731]
contour_details : [1268 1566],[1268 1756],[1323 1756],[1324 1757],[1324 1783],[2015 1783],[2015 1684],[1369 1684],[1368 1683],[1368 1566]
