contour_details : [1038 1786],[1037 1787],[777 1787],[776 1788],[762 1788],[762 1880],[1152 1880],[1152 1786] : degagement : [994,1833]
contour_details : [1332 1572],[1332 1575],[1331 1576],[1331 1667],[1330 1668],[1330 1760],[1329 1761],[1329 1853],[1328 1854],[1328 1945],[1327 1946],[1327 2038],[1326 2039],[1326 2130],[1325 2131],[1325 2223],[1324 2224],[1324 2265],[2009 2265],[2009 1855],[2008 1855],[2007 1854],[2005 1854],[2004 1853],[2002 1853],[2001 1852],[2000 1852],[1999 1851],[1997 1851],[1996 1850],[1994 1850],[1993 1849],[1991 1849],[1990 1848],[1988 1848],[1987 1847],[1986 1847],[1985 1846],[1983 1846],[1982 1845],[1980 1845],[1979 1844],[1977 1844],[1976 1843],[1974 1843],[1973 1842],[1972 1842],[1971 1841],[1969 1841],[1968 1840],[1966 1840],[1965 1839],[1963 1839],[1962 1838],[1961 1838],[1960 1837],[1958 1837],[1957 1836],[1955 1836],[1954 1835],[1952 1835],[1951 1834],[1949 1834],[1948 1833],[1947 1833],[1946 1832],[1944 1832],[1943 1831],[1941 1831],[1940 1830],[1938 1830],[1937 1829],[1935 1829],[1934 1828],[1933 1828],[1932 1827],[1930 1827],[1929 1826],[1927 1826],[1926 1825],[1924 1825],[1923 1824],[1922 1824],[1921 1823],[1919 1823],[1918 1822],[1916 1822],[1915 1821],[1913 1821],[1912 1820],[1910 1820],[1909 1819],[1908 1819],[1907 1818],[1905 1818],[1904 1817],[1902 1817],[1901 1816],[1899 1816],[1898 1815],[1896 1815],[1895 1814],[1894 1814],[1893 1813],[1891 1813],[1890 1812],[1888 1812],[1887 1811],[1885 1811],[1884 1810],[1883 1810],[1882 1809],[1880 1809],[1879 1808],[1877 1808],[1876 1807],[1874 1807],[1873 1806],[1871 1806],[1870 1805],[1869 1805],[1868 1804],[1866 1804],[1865 1803],[1863 1803],[1862 1802],[1860 1802],[1859 1801],[1857 1801],[1856 1800],[1855 1800],[1854 1799],[1852 1799],[1851 1798],[1849 1798],[1848 1797],[1846 1797],[1845 1796],[1843 1796],[1842 1795],[1841 1795],[1840 1794],[1838 1794],[1837 1793],[1835 1793],[1834 1792],[1832 1792],[1831 1791],[1830 1791],[1829 1790],[1827 1790],[1826 1789],[1824 1789],[1823 1788],[1821 1788],[1820 1787],[1818 1787],[1817 1786],[1816 1786],[1815 1785],[1813 1785],[1812 1784],[1810 1784],[1809 1783],[1807 1783],[1806 1782],[1804 1782],[1803 1781],[1802 1781],[1801 1780],[1799 1780],[1798 1779],[1796 1779],[1795 1778],[1793 1778],[1792 1777],[1791 1777],[1790 1776],[1788 1776],[1787 1775],[1785 1775],[1784 1774],[1782 1774],[1781 1773],[1779 1773],[1778 1772],[1777 1772],[1776 1771],[1774 1771],[1773 1770],[1771 1770],[1770 1769],[1768 1769],[1767 1768],[1765 1768],[1764 1767],[1763 1767],[1762 1766],[1760 1766],[1759 1765],[1757 1765],[1756 1764],[1754 1764],[1753 1763],[1752 1763],[1751 1762],[1749 1762],[1748 1761],[1746 1761],[1745 1760],[1743 1760],[1742 1759],[1740 1759],[1739 1758],[1738 1758],[1737 1757],[1735 1757],[1734 1756],[1732 1756],[1731 1755],[1729 1755],[1728 1754],[1726 1754],[1725 1753],[1724 1753],[1723 1752],[1721 1752],[1720 1751],[1718 1751],[1717 1750],[1715 1750],[1714 1749],[1713 1749],[1712 1748],[1710 1748],[1709 1747],[1707 1747],[1706 1746],[1704 1746],[1703 1745],[1701 1745],[1700 1744],[1699 1744],[1698 1743],[1696 1743],[1695 1742],[1693 1742],[1692 1741],[1690 1741],[1689 1740],[1687 1740],[1686 1739],[1685 1739],[1684 1738],[1682 1738],[1681 1737],[1679 1737],[1678 1736],[1676 1736],[1674 1734],[1674 1572] : sejour : [1662,2019]
contour_details : [1077 1572],[1077 1667],[1157 1667],[1158 1668],[1158 1878],[1313 1878],[1313 1749],[1314 1748],[1315 1748],[1316 1749],[1318 1749],[1319 1750],[1322 1750],[1323 1751],[1323 1572] : hall : [1243,1726]
contour_details : [990 1572],[990 1773],[1142 1773],[1142 1680],[1068 1680],[1067 1679],[1067 1572] : wc : [1026,1730]
contour_details : [763 1455],[763 1594],[762 1595],[762 1769],[941 1769],[941 1662],[942 1661],[942 1455] : bains : [892,1617]
contour_details : [1684 1420],[1684 1726],[1686 1726],[1687 1727],[1689 1727],[1690 1728],[1692 1728],[1693 1729],[1694 1729],[1695 1730],[1697 1730],[1698 1731],[1700 1731],[1701 1732],[1703 1732],[1704 1733],[1705 1733],[1706 1734],[1708 1734],[1709 1735],[1711 1735],[1712 1736],[1713 1736],[1714 1737],[1716 1737],[1717 1738],[1719 1738],[1720 1739],[1722 1739],[1723 1740],[1724 1740],[1725 1741],[1727 1741],[1728 1742],[1730 1742],[1731 1743],[1733 1743],[1734 1744],[1735 1744],[1736 1745],[1738 1745],[1739 1746],[1741 1746],[1742 1747],[1744 1747],[1745 1748],[1746 1748],[1747 1749],[1749 1749],[1750 1750],[1752 1750],[1753 1751],[1755 1751],[1756 1752],[1757 1752],[1758 1753],[1760 1753],[1761 1754],[1763 1754],[1764 1755],[1766 1755],[1767 1756],[1768 1756],[1769 1757],[1771 1757],[1772 1758],[1774 1758],[1775 1759],[1776 1759],[1777 1760],[1779 1760],[1780 1761],[1782 1761],[1783 1762],[1785 1762],[1786 1763],[1787 1763],[1788 1764],[1790 1764],[1791 1765],[1793 1765],[1794 1766],[1796 1766],[1797 1767],[1798 1767],[1799 1768],[1801 1768],[1802 1769],[1804 1769],[1805 1770],[1807 1770],[1808 1771],[1809 1771],[1810 1772],[1812 1772],[1813 1773],[1815 1773],[1816 1774],[1818 1774],[1819 1775],[1820 1775],[1821 1776],[1823 1776],[1824 1777],[1826 1777],[1827 1778],[1828 1778],[1829 1779],[1831 1779],[1832 1780],[1834 1780],[1835 1781],[1837 1781],[1838 1782],[1839 1782],[1840 1783],[1842 1783],[1843 1784],[1845 1784],[1846 1785],[1848 1785],[1849 1786],[1850 1786],[1851 1787],[1853 1787],[1854 1788],[1856 1788],[1857 1789],[1859 1789],[1860 1790],[1861 1790],[1862 1791],[1864 1791],[1865 1792],[1867 1792],[1868 1793],[1870 1793],[1871 1794],[1872 1794],[1873 1795],[1875 1795],[1876 1796],[1878 1796],[1879 1797],[1880 1797],[1881 1798],[1883 1798],[1884 1799],[1886 1799],[1887 1800],[1889 1800],[1890 1801],[1891 1801],[1892 1802],[1894 1802],[1895 1803],[1897 1803],[1898 1804],[1900 1804],[1901 1805],[1902 1805],[1903 1806],[1905 1806],[1906 1807],[1908 1807],[1909 1808],[1911 1808],[1912 1809],[1913 1809],[1914 1810],[1916 1810],[1917 1811],[1919 1811],[1920 1812],[1922 1812],[1923 1813],[1924 1813],[1925 1814],[1927 1814],[1928 1815],[1930 1815],[1931 1816],[1932 1816],[1933 1817],[1935 1817],[1936 1818],[1938 1818],[1939 1819],[1941 1819],[1942 1820],[1943 1820],[1944 1821],[1946 1821],[1947 1822],[1949 1822],[1950 1823],[1952 1823],[1953 1824],[1954 1824],[1955 1825],[1957 1825],[1958 1826],[1960 1826],[1961 1827],[1963 1827],[1964 1828],[1965 1828],[1966 1829],[1968 1829],[1969 1830],[1971 1830],[1972 1831],[1974 1831],[1975 1832],[1976 1832],[1977 1833],[1979 1833],[1980 1834],[1982 1834],[1983 1835],[1984 1835],[1985 1836],[1987 1836],[1988 1837],[1990 1837],[1991 1838],[1993 1838],[1994 1839],[1995 1839],[1996 1840],[1998 1840],[1999 1841],[2001 1841],[2002 1842],[2004 1842],[2005 1843],[2006 1843],[2007 1844],[2009 1844],[2010 1845],[2012 1845],[2012 1420] : cuisine : [1867,1658]
